"Account #","Contract #","Job #","Job_Location","PO #","Invoice #","Date","Original Amount","Balance","Adjustment Amount","Adjusted Amount","Aging Days","Invoice Status","Invoice Type"
"187321","55947604","1 - MOORESVILLE OFFI","177 KNOB HILL RD, MOORESVILLE","245483","55947604-0022","1/26/2017","$1,576.88","$0.00","$0.00","$1,576.88","Current","PD","4 Week Bill"
"187321","55947604","1 - MOORESVILLE OFFI","177 KNOB HILL RD, MOORESVILLE","245483","55947604-0023","2/6/2017","$14,811.36","$0.00","$0.00","$14,811.36","Current","PD","Damage Invoice"
"187321","55947604","1 - MOORESVILLE OFFI","177 KNOB HILL RD, MOORESVILLE","268671","55947604-0024","2/23/2017","$1,576.88","$0.00","$0.00","$1,576.88","Current","PD","4 Week Bill"
"187321","55947604","1 - MOORESVILLE OFFI","177 KNOB HILL RD, MOORESVILLE","268671","55947604-0025","3/23/2017","$1,576.88","$0.00","$0.00","$1,576.88","Current","PD","4 Week Bill"
"187321","55947604","1 - MOORESVILLE OFFI","177 KNOB HILL RD, MOORESVILLE","268671","55947604-0026","4/20/2017","$1,576.88","$0.00","$0.00","$1,576.88","Current","PD","4 Week Bill"
"187321","55947604","1 - MOORESVILLE OFFI","177 KNOB HILL RD, MOORESVILLE","268671","55947604-0027","5/18/2017","$1,576.88","$0.00","$0.00","$1,576.88","Current","PD","4 Week Bill"
"187321","55947604","1 - MOORESVILLE OFFI","177 KNOB HILL RD, MOORESVILLE","268671","55947604-0029","6/15/2017","$1,576.88","$0.00","$0.00","$1,576.88","Current","PD","4 Week Bill"
"187321","55947604","1 - MOORESVILLE OFFI","177 KNOB HILL RD, MOORESVILLE","268671","55947604-0030","7/13/2017","$1,576.88","$0.00","$0.00","$1,576.88","Current","PD","4 Week Bill"
"187321","55947604","1 - MOORESVILLE OFFI","177 KNOB HILL RD, MOORESVILLE","268671","55947604-0031","8/10/2017","$1,576.88","$0.00","$0.00","$1,576.88","Current","PD","4 Week Bill"
"187321","55947604","1 - MOORESVILLE OFFI","177 KNOB HILL RD, MOORESVILLE","268671","55947604-0032","9/7/2017","$1,576.88","$0.00","$0.00","$1,576.88","Current","PD","4 Week Bill"
"187321","55947604","1 - MOORESVILLE OFFI","177 KNOB HILL RD, MOORESVILLE","268671","55947604-0033","10/5/2017","$1,576.88","$0.00","$0.00","$1,576.88","Current","PD","4 Week Bill"
"187321","55947604","1 - MOORESVILLE OFFI","177 KNOB HILL RD, MOORESVILLE","268671","55947604-0034","11/2/2017","$1,576.88","$0.00","$0.00","$1,576.88","Current","PD","4 Week Bill"
"187321","55947604","1 - MOORESVILLE OFFI","177 KNOB HILL RD, MOORESVILLE","268671","55947604-0035","11/30/2017","$1,576.88","$0.00","$0.00","$1,576.88","Current","PD","4 Week Bill"
"187321","55947604","1 - MOORESVILLE OFFI","177 KNOB HILL RD, MOORESVILLE","268671","55947604-0036","12/28/2017","$1,576.88","$0.00","$0.00","$1,576.88","Current","PD","4 Week Bill"
"187321","55947604","1 - MOORESVILLE OFFI","177 KNOB HILL RD, MOORESVILLE","292114","55947604-0037","1/25/2018","$1,576.88","$0.00","$0.00","$1,576.88","Current","PD","4 Week Bill"
"187321","58477894","1 - MOORESVILLE OFFI","177 KNOB HILL RD, MOORESVILLE","268671","58477894-0034","2/16/2017","$2,305.52","$0.00","$0.00","$2,305.52","Current","PD","4 Week Bill"
"187321","58477894","1 - MOORESVILLE OFFI","177 KNOB HILL RD, MOORESVILLE","268671","58477894-0036","3/10/2017","$73.12","$0.00","$0.00","$73.12","Current","PD","Damage Invoice"
"187321","58477894","1 - MOORESVILLE OFFI","177 KNOB HILL RD, MOORESVILLE","268671","58477894-0037","3/16/2017","$2,305.52","$0.00","$0.00","$2,305.52","Current","PD","4 Week Bill"
"187321","58477894","1 - MOORESVILLE OFFI","177 KNOB HILL RD, MOORESVILLE","268671","58477894-0038","4/13/2017","$3,017.84","$0.00","$0.00","$3,017.84","Current","PD","4 Week Bill"
"187321","58477894","1 - MOORESVILLE OFFI","177 KNOB HILL RD, MOORESVILLE","268671","58477894-0039","5/11/2017","$3,017.84","$0.00","$0.00","$3,017.84","Current","PD","4 Week Bill"
"187321","58477894","1 - MOORESVILLE OFFI","177 KNOB HILL RD, MOORESVILLE","268671","58477894-0041","6/8/2017","$2,528.44","$0.00","$0.00","$2,528.44","Current","PD","4 Week Bill"
"187321","58477894","1 - MOORESVILLE OFFI","177 KNOB HILL RD, MOORESVILLE","268671","58477894-0044","7/3/2017","$570.94","$0.00","$0.00","$570.94","Current","PD","Partial Return"
"187321","58477894","1 - MOORESVILLE OFFI","177 KNOB HILL RD, MOORESVILLE","268671","58477894-0045","7/6/2017","$2,131.50","$0.00","$0.00","$2,131.50","Current","PD","4 Week Bill"
"187321","58477894","1 - MOORESVILLE OFFI","177 KNOB HILL RD, MOORESVILLE","268671","58477894-0046","8/3/2017","$2,131.50","$0.00","-$0.10","$2,131.40","Current","PD","4 Week Bill"
"187321","58477894","1 - MOORESVILLE OFFI","177 KNOB HILL RD, MOORESVILLE","268671","58477894-0048","8/31/2017","$2,131.50","$0.00","$0.00","$2,131.50","Current","PD","4 Week Bill"
"187321","58477894","1 - MOORESVILLE OFFI","177 KNOB HILL RD, MOORESVILLE","268671","58477894-0050","9/28/2017","$2,131.50","$0.00","$0.00","$2,131.50","Current","PD","4 Week Bill"
"187321","58477894","1 - MOORESVILLE OFFI","177 KNOB HILL RD, MOORESVILLE","268671","58477894-0052","10/26/2017","$2,131.50","$0.00","$0.00","$2,131.50","Current","PD","4 Week Bill"
"187321","58477894","1 - MOORESVILLE OFFI","177 KNOB HILL RD, MOORESVILLE","268671","58477894-0054","11/23/2017","$2,131.50","$0.00","$0.00","$2,131.50","Current","PD","4 Week Bill"
"187321","58477894","1 - MOORESVILLE OFFI","177 KNOB HILL RD, MOORESVILLE","268671","58477894-0055","12/21/2017","$2,131.50","$0.00","$0.00","$2,131.50","Current","PD","4 Week Bill"
"187321","58477894","1 - MOORESVILLE OFFI","177 KNOB HILL RD, MOORESVILLE","292114","58477894-0056","1/18/2018","$2,131.50","$0.00","$0.00","$2,131.50","Current","PD","4 Week Bill"
"187321","61830442","WINDSOR RUN ASSISTED","2010 MCKEE RD, MATTHEWS","257666","61830442-0008","2/6/2017","$1,748.00","$0.00","$0.00","$1,748.00","Current","PD","4 Week Bill"
"187321","61830442","WINDSOR RUN ASSISTED","2010 MCKEE RD, MATTHEWS","257666","61830442-0009","3/6/2017","$1,748.00","$0.00","$0.00","$1,748.00","Current","PD","4 Week Bill"
"187321","61830442","WINDSOR RUN ASSISTED","2010 MCKEE RD, MATTHEWS","257666","61830442-0010","4/3/2017","$1,748.00","$0.00","$0.00","$1,748.00","Current","PD","4 Week Bill"
"187321","61830442","WINDSOR RUN ASSISTED","2010 MCKEE RD, MATTHEWS","257666","61830442-0011","5/1/2017","$1,748.00","$0.00","$0.00","$1,748.00","Current","PD","4 Week Bill"
"187321","61830442","WINDSOR RUN ASSISTED","2010 MCKEE RD, MATTHEWS","257666","61830442-0012","5/29/2017","$1,748.00","$0.00","$0.00","$1,748.00","Current","PD","4 Week Bill"
"187321","61830442","WINDSOR RUN ASSISTED","2010 MCKEE RD, MATTHEWS","257666","61830442-0013","6/9/2017","$212.36","$0.00","$0.00","$212.36","Current","PD","Exchange"
"187321","61830442","WINDSOR RUN ASSISTED","2010 MCKEE RD, MATTHEWS","257666","61830442-0014","6/26/2017","$1,748.00","$0.00","$0.00","$1,748.00","Current","PD","4 Week Bill"
"187321","61830442","WINDSOR RUN ASSISTED","2010 MCKEE RD, MATTHEWS","257666","61830442-0015","7/24/2017","$1,748.00","$0.00","$0.00","$1,748.00","Current","PD","4 Week Bill"
"187321","61830442","WINDSOR RUN ASSISTED","2010 MCKEE RD, MATTHEWS","257666","61830442-0016","8/21/2017","$1,748.00","$0.00","$0.00","$1,748.00","Current","PD","4 Week Bill"
"187321","61830442","WINDSOR RUN ASSISTED","2010 MCKEE RD, MATTHEWS","257666","61830442-0017","9/18/2017","$1,748.00","$0.00","$0.00","$1,748.00","Current","PD","4 Week Bill"
"187321","61830442","WINDSOR RUN ASSISTED","2010 MCKEE RD, MATTHEWS","257666","61830442-0018","10/16/2017","$1,748.00","$0.00","$0.00","$1,748.00","Current","PD","4 Week Bill"
"187321","61830442","WINDSOR RUN ASSISTED","2010 MCKEE RD, MATTHEWS","257666","61830442-0019","11/13/2017","$1,748.00","$0.00","$0.00","$1,748.00","Current","PD","4 Week Bill"
"187321","61830442","WINDSOR RUN ASSISTED","2010 MCKEE RD, MATTHEWS","257666","61830442-0020","12/11/2017","$1,748.00","$0.00","$0.00","$1,748.00","Current","PD","4 Week Bill"
"187321","61830442","WINDSOR RUN ASSISTED","2010 MCKEE RD, MATTHEWS","257666","61830442-0021","1/8/2018","$1,748.00","$0.00","$0.00","$1,748.00","Current","PD","4 Week Bill"
"187321","62012641","WINDSOR RUN ASSISTED","2010 MCKEE RD, MATTHEWS","258084","62012641-0008","2/21/2017","$2,439.41","$0.00","$0.00","$2,439.41","Current","PD","4 Week Bill"
"187321","62012641","WINDSOR RUN ASSISTED","2010 MCKEE RD, MATTHEWS","258084","62012641-0009","3/6/2017","$234.61","$0.00","$0.00","$234.61","Current","PD","Damage Invoice"
"187321","62012641","WINDSOR RUN ASSISTED","2010 MCKEE RD, MATTHEWS","258084","62012641-0010","3/21/2017","$2,439.41","$0.00","$0.00","$2,439.41","Current","PD","4 Week Bill"
"187321","62012641","WINDSOR RUN ASSISTED","2010 MCKEE RD, MATTHEWS","258084","62012641-0011","4/14/2017","$2,335.59","$0.00","$0.00","$2,335.59","Current","PD","Full Return"
"187321","63729393","WINDSOR RUN ASSISTED","2010 MCKEE RD, MATTHEWS","262890","63729393-0006","2/3/2017","$1,611.44","$0.00","$0.00","$1,611.44","Current","PD","4 Week Bill"
"187321","63729393","WINDSOR RUN ASSISTED","2010 MCKEE RD, MATTHEWS","262890","63729393-0007","3/4/2017","$1,611.44","$0.00","$0.00","$1,611.44","Current","PD","4 Week Bill"
"187321","63729393","WINDSOR RUN ASSISTED","2010 MCKEE RD, MATTHEWS","262890","63729393-0008","3/30/2017","$1,551.63","$0.00","$0.00","$1,551.63","Current","PD","Full Return"
"187321","65131288","HARDEES","614 E MCGREGOR STREET, PAGELAND","266181","65131288-0002","3/31/2017","-$1,776.00","$0.00","$0.00","-$1,776.00","Current","PD","Credit Memo"
"187321","66372637","1 - TOWN OF GRANITE","143 NORTH SALISBURY GQ AVE, SALISBURY","269960","66372637-0001","1/31/2017","$540.35","$0.00","$0.00","$540.35","Current","PD","Full Return"
"187321","66390455","1 - CUSHMAN & WAKEFI","800 CLANTON RD, CHARLOTTE","269956","66390455-0001","1/27/2017","$1,016.42","$0.00","$0.00","$1,016.42","Current","PD","Full Return"
"187321","66456560","HARDIN","1281 RIDGE RD., HENDERSONVILLE","270164","66456560-0001","1/31/2017","$658.75","$0.00","$0.00","$658.75","Current","PD","Full Return"
"187321","66459077","1 - MOORESVILLE OFFI","177 KNOB HILL RD, MOORESVILLE","270159","66459077-0001","1/26/2017","$245.81","$0.00","$0.00","$245.81","Current","PD","Full Return"
"187321","66525489","1 - MOORESVILLE OFFI","177 KNOB HILL RD, MOORESVILLE","270337","66525489-0001","2/1/2017","$309.94","$0.00","$0.00","$309.94","Current","PD","Full Return"
"187321","66541311","DEVANE","419 PEANUT RD, ELIZABETHTOWN","270393","66541311-0001","2/7/2017","$698.40","$0.00","$0.00","$698.40","Current","PD","Full Return"
"187321","66687593","A&L PROPERTIES","5251 CHESNEE HWY, CHESNEE","270792","66687593-0001","2/17/2017","$632.37","$0.00","$0.00","$632.37","Current","PD","Full Return"
"187321","66687608","A&L PROPERTIES","5251 CHESNEE HWY, CHESNEE","270790","66687608-0001","2/17/2017","$346.94","$0.00","$0.00","$346.94","Current","PD","Full Return"
"187321","66695813","SWING TRANSPORT","200 SOWERS RD, SALISBURY","270800","66695813-0001","2/9/2017","$1,693.01","$0.00","$0.00","$1,693.01","Current","PD","Full Return"
"187321","66721897","HEZEKIAH ALEXANDER","3500 SHAMROCK DR, CHARLOTTE","270902","66721897-0001","2/9/2017","$420.81","$0.00","$0.00","$420.81","Current","PD","Full Return"
"187321","66825062","1 - MOORESVILLE OFFI","177 KNOB HILL RD, MOORESVILLE","271166","66825062-0002","2/13/2017","$445.88","$0.00","$0.00","$445.88","Current","PD","Full Return"
"187321","66856815","LAHRMER","161 BUGGER HOLLOW RD, ELLENBORO","271271","66856815-0001","2/17/2017","$1,091.45","$0.00","$0.00","$1,091.45","Current","PD","Full Return"
"187321","66921019","MAUNEY HOSIERY","20 PINE ST, KINGS MOUNTAIN","271418","66921019-0001","2/16/2017","$630.26","$0.00","$0.00","$630.26","Current","PD","Full Return"
"187321","66957119","1 - MOORESVILLE OFFI","177 KNOB HILL RD, MOORESVILLE","271243","66957119-0001","2/20/2017","$244.32","$0.00","$0.00","$244.32","Current","PD","Full Return"
"187321","66976041","SOUTHCO","1840 E DIXON BLVD, SHELBY","271417","66976041-0001","2/21/2017","$971.57","$0.00","$0.00","$971.57","Current","PD","Full Return"
"187321","67010984","ESTES EXPRESS","11000 REAMES RD, CHARLOTTE","271717","67010984-0001","3/7/2017","$1,862.91","$0.00","$0.00","$1,862.91","Current","PD","Full Return"
"187321","67024242","TAYLOR INC","1585 US HWY 701 N, ELIZABETHTOWN","271720","67024242-0001","2/27/2017","$1,136.89","$0.00","$0.00","$1,136.89","Current","PD","Full Return"
"187321","67031071","1 - MOORESVILLE OFFI","177 KNOB HILL RD, MOORESVILLE","271719","67031071-0001","2/21/2017","$355.06","$0.00","$0.00","$355.06","Current","PD","Full Return"
"187321","67052634","GUARENTEED SUPPLY","1401 METALS DR UNIT B, CHARLOTTE","271841","67052634-0001","2/27/2017","$519.14","$0.00","$0.00","$519.14","Current","PD","Full Return"
"187321","67055391","GALLIHER","2634 US HWY 74 W, WADESBORO","271855","67055391-0001","2/24/2017","$734.60","$0.00","$0.00","$734.60","Current","PD","Full Return"
"187321","67058881","ESTES EXPRESS","11000 REAMES RD, CHARLOTTE","271843","67058881-0002","3/6/2017","$666.62","$0.00","$0.00","$666.62","Current","PD","4 Week Bill"
"187321","67088285","SOUTHERN SALES OF AB","1995 MORGANTON RD. STE. B, SOUTHERN PINE","271864","67088285-0001","2/27/2017","$650.70","$0.00","$0.00","$650.70","Current","PD","Full Return"
"187321","67121745","AA TEXLAWN","1505 WAXHAW INDIAN TRAIL RD STE E, INDIA","271976","67121745-0001","3/1/2017","$618.07","$0.00","$0.00","$618.07","Current","PD","Full Return"
"187321","67144758","SOUTHCO","1840 E DIXON BLVD, SHELBY","271866","67144758-0001","2/27/2017","$962.76","$0.00","$0.00","$962.76","Current","PD","Full Return"
"187321","67169433","1 - MOORESVILLE OFFI","177 KNOB HILL RD, MOORESVILLE","272067","67169433-0002","3/15/2017","$326.25","$0.00","$0.00","$326.25","Current","PD","4 Week Bill"
"187321","67181983","DEPOT SALVAGE","1000 W GROVER ST, SHELBY","272125","67181983-0001","3/6/2017","$579.65","$0.00","$0.00","$579.65","Current","PD","Full Return"
"187321","67185084","BADCOCK","1202 HIGHWAY 9 BYPASS, LANCASTER","272124","67185084-0001","3/1/2017","$626.84","$0.00","$0.00","$626.84","Current","PD","Full Return"
"187321","67261674","FEDERAL EXPRESS","4349 SCOTT FUTRELL DR, CHARLOTTE","272196","67261674-0001","3/8/2017","$1,232.42","$0.00","$0.00","$1,232.42","Current","PD","Full Return"
"187321","67262352","AMERICAN STAINLESS C","815 STATE RD, CHERAW","272297","67262352-0001","3/8/2017","$953.20","$0.00","$0.00","$953.20","Current","PD","Full Return"
"187321","67363146","JT MOORE","944 WINSTON DR, LANCASTER","272534","67363146-0001","3/8/2017","$626.84","$0.00","$0.00","$626.84","Current","PD","Full Return"
"187321","67376321","PARRISH SIGN","627 LAURINBURG RD., RAEFORD","272536","67376321-0001","3/15/2017","$1,073.98","$0.00","$0.00","$1,073.98","Current","PD","Full Return"
"187321","67425115","H & H DISTRIBUTION","5236 WILKINSON BLVD, CHARLOTTE","272695","67425115-0001","3/14/2017","$689.12","$0.00","$0.00","$689.12","Current","PD","Partial Return"
"187321","67425115","H & H DISTRIBUTION","5236 WILKINSON BLVD, CHARLOTTE","272695","67425115-0002","3/16/2017","$846.69","$0.00","$0.00","$846.69","Current","PD","Full Return"
"187321","67437910","FORSHAW","640 STATE ST, CHARLOTTE","272747","67437910-0001","3/13/2017","$366.19","$0.00","$0.00","$366.19","Current","PD","Full Return"
"187321","67488263","A&L PROPORTIES","5257 CHESNEE HWY, CHESNEE","272917","67488263-0001","3/15/2017","$603.08","$0.00","$0.00","$603.08","Current","PD","Full Return"
"187321","67558508","PROGRESSIVE COMPUTER","615 EASTOWNE DR, CHAPEL HILL","273079","67558508-0001","3/21/2017","$700.44","$0.00","$0.00","$700.44","Current","PD","Full Return"
"187321","67564749","1 - MOORESVILLE OFFI","177 KNOB HILL RD, MOORESVILLE","273077","67564749-0002","3/20/2017","$505.69","$0.00","$0.00","$505.69","Current","PD","Full Return"
"187321","67625085","ONE NORTH MCDOWELL","101 N MCDOWELL ST, CHARLOTTE","273184","67625085-0001","3/20/2017","$614.96","$0.00","$0.00","$614.96","Current","PD","Full Return"
"187321","67627087","1 - MOORESVILLE OFFI","177 KNOB HILL RD, MOORESVILLE","273183","67627087-0001","3/17/2017","$218.00","$0.00","$0.00","$218.00","Current","PD","Full Return"
"187321","67682136","SHELL FARMINGTON","305 FARMINGTON RD, MOCKSVILLE","273380","67682136-0001","3/23/2017","$966.07","$0.00","$0.00","$966.07","Current","PD","Full Return"
"187321","67687065","CABELAS","201 CABELA DRIVE,, GARNER","273360","67687065-0001","3/21/2017","$425.93","$0.00","$0.00","$425.93","Current","PD","Full Return"
"187321","67734642","ESTES","10815 REAMES RD., CHARLOTTE","273492","67734642-0001","3/27/2017","$622.72","$0.00","$0.00","$622.72","Current","PD","Full Return"
"187321","67744376","1 - MOORESVILLE OFFI","177 KNOB HILL RD, MOORESVILLE","273564","67744376-0001","3/24/2017","$311.36","$0.00","$0.00","$311.36","Current","PD","Full Return"
"187321","67793932","HAYWORTH AUTO","4211 W LEXINGTON AVENUE EXT, HIGH POINT","858195","67793932-0001","3/28/2017","$464.94","$0.00","$0.00","$464.94","Current","PD","Full Return"
"187321","67818085","AC MARRIOTT","225 W MAIN ST, SPARTANBURG","273760","67818085-0001","4/12/2017","$3,222.42","$0.00","$0.00","$3,222.42","Current","PD","4 Week Bill"
"187321","67818085","AC MARRIOTT","225 W MAIN ST, SPARTANBURG","273760","67818085-0002","4/24/2017","$78.28","$0.00","$0.00","$78.28","Current","PD","Full Return"
"187321","67818085","AC MARRIOTT","225 W MAIN ST, SPARTANBURG","273760","67818085-0003","5/10/2017","-$698.27","$0.00","$0.00","-$698.27","Current","PD","Credit Memo"
"187321","67837440","HILTON GARDEN INN","4808 SHARON ROAD, NC","273758","67837440-0001","4/11/2017","$1,832.91","$0.00","$0.00","$1,832.91","Current","PD","4 Week Bill"
"187321","67837440","HILTON GARDEN INN","4808 SHARON ROAD, NC","273758","67837440-0002","5/9/2017","$1,608.75","$0.00","$0.00","$1,608.75","Current","PD","4 Week Bill"
"187321","67837440","HILTON GARDEN INN","4808 SHARON ROAD, NC","273758","67837440-0003","5/30/2017","$305.67","$0.00","$0.00","$305.67","Current","PD","Partial Return"
"187321","67837440","HILTON GARDEN INN","4808 SHARON ROAD, NC","273758","67837440-0004","6/6/2017","$1,179.75","$0.00","$0.00","$1,179.75","Current","PD","4 Week Bill"
"187321","67837440","HILTON GARDEN INN","4808 SHARON ROAD, NC","273758","67837440-0005","6/12/2017","$42.10","$0.00","$0.00","$42.10","Current","PD","Full Return"
"187321","67838401","SOUTHERN FARMS","2825 W MEMORIAL HWY, UNION GROVE","273815","67838401-0001","4/3/2017","$1,244.00","$0.00","$0.00","$1,244.00","Current","PD","Full Return"
"187321","67852012","ARES TECH","240 PARKWAY E STE 100, DUNCAN","273820","67852012-0001","4/7/2017","$1,872.36","$0.00","$0.00","$1,872.36","Current","PD","Full Return"
"187321","67862010","CLASSIC SOLUTIONS","306 FIELDS DR, ABERDEEN","273818","67862010-0001","4/6/2017","$670.39","$0.00","$0.00","$670.39","Current","PD","Full Return"
"187321","67887286","1 - MOORESVILLE OFFI","177 KNOB HILL RD, MOORESVILLE","858078","67887286-0001","3/31/2017","$674.97","$0.00","$0.00","$674.97","Current","PD","Full Return"
"187321","67892181","DEPOT SALVAGE","1000 W GROVER ST, SHELBY","273731","67892181-0001","4/6/2017","$574.31","$0.00","$0.00","$574.31","Current","PD","Full Return"
"187321","67908263","RUTHERFORD COUNTY","198 WASHINGTON ST, RUTHERFORDTON","273966","67908263-0001","4/3/2017","$559.37","$0.00","$0.00","$559.37","Current","PD","Full Return"
"187321","67988073","FEDERAL EXPRESS","4349 SCOTT FUTRELL DR, CHARLOTTE","247140","67988073-0001","4/18/2017","$2,010.15","$0.00","$0.00","$2,010.15","Current","PD","Full Return"
"187321","68016015","NPN ENTERPRISES","100 RATCHFORD RD, YORK","274150","68016015-0001","4/7/2017","$982.46","$0.00","$0.00","$982.46","Current","PD","Full Return"
"187321","68045032","1 - MOORESVILLE OFFI","177 KNOB HILL RD, MOORESVILLE","274299","68045032-0001","4/11/2017","$701.44","$0.00","$0.00","$701.44","Current","PD","Full Return"
"187321","68052422","1 - FAST TRACK 136","2175 MORGANTON BLVD, LENOIR","274361","68052422-0001","4/6/2017","$489.38","$0.00","$0.00","$489.38","Current","PD","Full Return"
"187321","68053555","1 - MOORESVILLE OFFI","177 KNOB HILL RD, MOORESVILLE","274360","68053555-0001","4/6/2017","$489.38","$0.00","$0.00","$489.38","Current","PD","Full Return"
"187321","68091908","MAXXON","8832 SIDNEY CIR, CHARLOTTE","274422","68091908-0001","4/7/2017","$923.36","$0.00","$0.00","$923.36","Current","PD","Full Return"
"187321","68114844","1 - MOORESVILLE OFFI","177 KNOB HILL RD, MOORESVILLE","274494","68114844-0001","4/7/2017","$369.76","$0.00","$0.00","$369.76","Current","PD","Full Return"
"187321","68141640","1 - MOORESVILLE OFFI","177 KNOB HILL RD, MOORESVILLE","276763","68141640-0001","4/10/2017","$202.83","$0.00","$0.00","$202.83","Current","PD","Full Return"
"187321","68178413","ADVANCED METAL PRODU","3920 PERFORMANCE RD, CHARLOTTE","274590","68178413-0001","4/13/2017","$2,105.00","$0.00","$0.00","$2,105.00","Current","PD","Full Return"
"187321","68211505","13- GAYLOR ELECTRIC-","3820 NORTHMORE ST, CHARLOTTE","276786","68211505-0001","4/10/2017","$101.89","$0.00","$0.00","$101.89","Current","PD","Sales Invoice"
"187321","68222456","MATLAB PLANT 8","1112 NC HIGHWAY 49 S, ASHEBORO","274679","68222456-0001","4/13/2017","$967.28","$0.00","$0.00","$967.28","Current","PD","Full Return"
"187321","68222652","1 - MOORESVILLE OFFI","177 KNOB HILL RD, MOORESVILLE","274705","68222652-0001","4/11/2017","$147.49","$0.00","$0.00","$147.49","Current","PD","Full Return"
"187321","68255597","1 - MOORESVILLE OFFI","177 KNOB HILL RD, MOORESVILLE","274775","68255597-0001","4/12/2017","$184.87","$0.00","$0.00","$184.87","Current","PD","Full Return"
"187321","68264597","1 - MOORESVILLE OFFI","177 KNOB HILL RD, MOORESVILLE","N/R","68264597-0001","4/12/2017","$185.30","$0.00","$0.00","$185.30","Current","PD","Full Return"
"187321","68266526","SOUTHERN FARMS","2825 W MEMORIAL HWY, UNION GROVE","274834","68266526-0001","4/14/2017","$704.35","$0.00","$0.00","$704.35","Current","PD","Full Return"
"187321","68282233","FULENWIDER","1916 E MAIN ST., LINCOLNTON","274831","68282233-0001","4/14/2017","$480.38","$0.00","$0.00","$480.38","Current","PD","Full Return"
"187321","68289789","WESTLAKE UNITED","10415 WESTLAKE DR, CHARLOTTE","275112","68289789-0001","4/21/2017","$1,132.66","$0.00","$0.00","$1,132.66","Current","PD","4 Week Bill"
"187321","68301500","BIG LOTS WILKESBORO","1806 WINKLER ST, WILKESBORO","274975","68301500-0001","4/17/2017","$1,607.05","$0.00","$0.00","$1,607.05","Current","PD","Full Return"
"187321","68322497","13- GAYLOR ELECTRIC-","3820 NORTHMORE ST, CHARLOTTE","276787","68322497-0001","4/14/2017","$101.89","$0.00","$0.00","$101.89","Current","PD","Sales Invoice"
"187321","68330431","1 - MOORESVILLE OFFI","177 KNOB HILL RD, MOORESVILLE","09050116","68330431-0001","4/17/2017","$177.21","$0.00","$0.00","$177.21","Current","PD","Full Return"
"187321","68330431","1 - MOORESVILLE OFFI","177 KNOB HILL RD, MOORESVILLE","09050116","68330431-0002","4/27/2017","-$88.60","$0.00","$0.00","-$88.60","Current","PD","Credit Memo"
"187321","68340485","WESTLAKE UNITED","10415 WESTLAKE DR, CHARLOTTE","275108","68340485-0001","5/2/2017","$2,631.64","$0.00","$0.00","$2,631.64","Current","PD","Full Return"
"187321","68371861","1 - MOORESVILLE OFFI","177 KNOB HILL RD, MOORESVILLE","275084","68371861-0001","4/18/2017","$491.63","$0.00","$0.00","$491.63","Current","PD","Full Return"
"187321","68414320","1 - MOORESVILLE OFFI","177 KNOB HILL RD, MOORESVILLE","275195","68414320-0001","4/19/2017","$244.69","$0.00","$0.00","$244.69","Current","PD","Full Return"
"187321","68433492","1 - MOORESVILLE OFFI","177 KNOB HILL RD, MOORESVILLE","CAROLINA BEVERAGE","68433492-0001","4/19/2017","$245.81","$0.00","$0.00","$245.81","Current","PD","Full Return"
"187321","68443508","EMPIRE CHEVY","1931 US HWY 421, WILKESBORO","275257","68443508-0001","4/25/2017","$917.51","$0.00","$0.00","$917.51","Current","PD","Full Return"
"187321","68512642","1 - MOORESVILLE OFFI","177 KNOB HILL RD, MOORESVILLE","275402","68512642-0001","4/24/2017","$233.82","$0.00","$0.00","$233.82","Current","PD","Full Return"
"187321","68565673","TARHEEL MARKETING","5353 RED TIP RD, FAYETTEVILLE","275491","68565673-0001","5/1/2017","$739.37","$0.00","$0.00","$739.37","Current","PD","Full Return"
"187321","68760529","1 - MOORESVILLE OFFI","177 KNOB HILL RD, MOORESVILLE","275937","68760529-0001","5/3/2017","$369.76","$0.00","$0.00","$369.76","Current","PD","Full Return"
"187321","68782481","ARROW STEEL","1621 UNION ST., SPARTANBURG","275966","68782481-0001","5/5/2017","$387.96","$0.00","$0.00","$387.96","Current","PD","Full Return"
"187321","68804050","1 - MOORESVILLE OFFI","177 KNOB HILL RD, MOORESVILLE","276022","68804050-0001","5/4/2017","$200.69","$0.00","$0.00","$200.69","Current","PD","Full Return"
"187321","68839246","DEPOT SALVAGE","1000 W GROVER ST, SHELBY","276124","68839246-0001","5/8/2017","$558.30","$0.00","$0.00","$558.30","Current","PD","Full Return"
"187321","68870847","ARES TECH","240 PARKWAY E STE 100, DUNCAN","858127","68870847-0001","5/10/2017","$1,474.98","$0.00","$0.00","$1,474.98","Current","PD","Full Return"
"187321","68986559","LOWES MOTOR SPEEDWAY","5555 CONCORD PARKWAY, CONCORD","276459","68986559-0001","5/22/2017","$2,376.66","$0.00","$0.00","$2,376.66","Current","PD","Full Return"
"187321","68997417","LOWES MOTOR SPEEDWAY","5555 CONCORD PARKWAY, CONCORD","276459","68997417-0001","5/23/2017","$1,578.71","$0.00","$0.00","$1,578.71","Current","PD","Full Return"
"187321","69122666","LOWES MOTOR SPEEDWAY","5555 CONCORD PARKWAY, CONCORD","276459","69122666-0001","5/19/2017","$1,251.39","$0.00","$0.00","$1,251.39","Current","PD","Full Return"
"187321","69122666","LOWES MOTOR SPEEDWAY","5555 CONCORD PARKWAY, CONCORD","276459","69122666-0002","8/8/2017","-$112.50","$0.00","$0.00","-$112.50","Current","PD","Credit Memo"
"187321","69136315","LOWES MOTOR SPEEDWAY","5555 CONCORD PARKWAY, CONCORD","276459","69136315-0001","5/24/2017","$1,064.30","$0.00","$0.00","$1,064.30","Current","PD","Full Return"
"187321","69139151","GREAT FORTUNE","8630 UNIVERSITY EXEC PARK DR, CHARLOTTE","276888","69139151-0001","5/18/2017","$656.66","$0.00","$0.00","$656.66","Current","PD","Full Return"
"187321","69146986","ROMAN KNIT","957 N MAIN ST, NORWOOD","276885","69146986-0001","5/23/2017","$591.76","$0.00","$0.00","$591.76","Current","PD","Full Return"
"187321","69277465","SAFE ALLIANCE","2845 WEST BLVD, CHARLOTTE","277160","69277465-0001","5/25/2017","$837.69","$0.00","$0.00","$837.69","Current","PD","Full Return"
"187321","69291591","LEROY SPRING CO","101 COUNTRY CLUB DR, FORT MILL","277273","69291591-0001","5/25/2017","$863.67","$0.00","$0.00","$863.67","Current","PD","Full Return"
"187321","69351939","FEDERAL EXPRESS","4349 SCOTT FUTRELL DR, CHARLOTTE","277338","69351939-0001","5/30/2017","$273.00","$0.00","$0.00","$273.00","Current","PD","Full Return"
"187321","69370557","1 - MOORESVILLE OFFI","177 KNOB HILL RD, MOORESVILLE","277444","69370557-0001","5/25/2017","$324.65","$0.00","$0.00","$324.65","Current","PD","Full Return"
"187321","69450999","FEDERAL EXPRESS","4349 SCOTT FUTRELL DR, CHARLOTTE","277338","69450999-0001","5/30/2017","$542.72","$0.00","$0.00","$542.72","Current","PD","Full Return"
"187321","69484063","AC MARRIOTT","225 W MAIN ST, SPARTANBURG","277902","69484063-0001","6/15/2017","$2,753.78","$0.00","$0.00","$2,753.78","Current","PD","4 Week Bill"
"187321","69484063","AC MARRIOTT","225 W MAIN ST, SPARTANBURG","277902","69484063-0002","7/13/2017","$2,498.85","$0.00","$0.00","$2,498.85","Current","PD","4 Week Bill"
"187321","69484063","AC MARRIOTT","225 W MAIN ST, SPARTANBURG","277902","69484063-0003","8/4/2017","$1,261.86","$0.00","$0.00","$1,261.86","Current","PD","Full Return"
"187321","69567482","LEAK ST ALUMNI","1004 LEAK ST, ROCKINGHAM","277938","69567482-0001","6/6/2017","$556.29","$0.00","$0.00","$556.29","Current","PD","Full Return"
"187321","69590792","SHAMS ENTERPRISE","3298 HWY 357, LYMAN","277952","69590792-0001","6/6/2017","$378.95","$0.00","$0.00","$378.95","Current","PD","Full Return"
"187321","69590792","SHAMS ENTERPRISE","3298 HWY 357, LYMAN","277952","69590792-0002","8/8/2017","-$17.49","$0.00","$0.00","-$17.49","Current","PD","Credit Memo"
"187321","69665264","PATE DAWSON","195 BUSINESS PARK DR, STATESVILLE","278166","69665264-0001","6/8/2017","$566.65","$0.00","$0.00","$566.65","Current","PD","Full Return"
"187321","69674312","FIRST PRESBYTERIAN","700 PARK AVE, FLORENCE","278170","69674312-0001","6/9/2017","$573.26","$0.00","$0.00","$573.26","Current","PD","Full Return"
"187321","69743703","1 - MOORESVILLE OFFI","177 KNOB HILL RD, MOORESVILLE","278174","69743703-0001","6/8/2017","$184.15","$0.00","$0.00","$184.15","Current","PD","Full Return"
"187321","69743703","1 - MOORESVILLE OFFI","177 KNOB HILL RD, MOORESVILLE","278174","69743703-0002","8/8/2017","-$24.02","$0.00","$6.75","-$17.27","Current","PD","Credit Memo"
"187321","69856588","ROMAN KNIT","957 N MAIN ST, NORWOOD","278651","69856588-0001","6/15/2017","$1,040.13","$0.00","$0.00","$1,040.13","Current","PD","Full Return"
"187321","69898656","BEACON MPI","1051 E MOREHEAD ST, CHARLOTTE","278762","69898656-0001","6/15/2017","$507.97","$0.00","$0.00","$507.97","Current","PD","Full Return"
"187321","69904804","1 - MOORESVILLE OFFI","177 KNOB HILL RD, MOORESVILLE","278912","69904804-0001","6/15/2017","$131.36","$0.00","$0.00","$131.36","Current","PD","Full Return"
"187321","69904804","1 - MOORESVILLE OFFI","177 KNOB HILL RD, MOORESVILLE","278912","69904804-0002","8/8/2017","-$16.05","$0.00","$0.00","-$16.05","Current","PD","Credit Memo"
"187321","69909725","BRADLEY LAUNDRY","3611 E CROFT CIR, SPARTANBURG","278699","69909725-0001","6/19/2017","$544.84","$0.00","$0.00","$544.84","Current","PD","Full Return"
"187321","69976198","1 - MOORESVILLE OFFI","177 KNOB HILL RD, MOORESVILLE","279030","69976198-0001","6/16/2017","$219.35","$0.00","$0.00","$219.35","Current","PD","Full Return"
"187321","69991681","1 - RED VENTURES","1101 RED VENTURES DR, FORT MILL","279078","69991681-0001","6/20/2017","$354.35","$0.00","$0.00","$354.35","Current","PD","Full Return"
"187321","70012950","1 - CUSTOMER PICKUP","932 N CONCORD PARKWAY, CONCORD","9050116","70012950-0001","6/19/2017","$250.10","$0.00","$0.00","$250.10","Current","PD","Full Return"
"187321","70054996","2 - FED EX - FED EX","3450 FORTUNE AVE, CONCORD","279030","70054996-0001","6/21/2017","$420.40","$0.00","$0.00","$420.40","Current","PD","Full Return"
"187321","70075462","1 - MOORESVILLE OFFI","177 KNOB HILL RD, MOORESVILLE","279289","70075462-0001","6/21/2017","$169.66","$0.00","$0.00","$169.66","Current","PD","Full Return"
"187321","70131134","AC MARRIOTT","225 W MAIN ST, SPARTANBURG","279474","70131134-0002","6/23/2017","$308.46","$0.00","$0.00","$308.46","Current","PD","Partial Return"
"187321","70131134","AC MARRIOTT","225 W MAIN ST, SPARTANBURG","279474","70131134-0003","7/7/2017","$22.26","$0.00","$0.00","$22.26","Current","PD","Full Return"
"187321","70153628","AC MARRIOTT","225 W MAIN ST, SPARTANBURG","279473","70153628-0001","7/10/2017","$2,252.50","$0.00","$0.00","$2,252.50","Current","PD","4 Week Bill"
"187321","70153628","AC MARRIOTT","225 W MAIN ST, SPARTANBURG","279473","70153628-0002","8/7/2017","$2,252.50","$0.00","$0.00","$2,252.50","Current","PD","4 Week Bill"
"187321","70153628","AC MARRIOTT","225 W MAIN ST, SPARTANBURG","279473","70153628-0003","9/4/2017","$2,252.50","$0.00","$0.00","$2,252.50","Current","PD","4 Week Bill"
"187321","70153628","AC MARRIOTT","225 W MAIN ST, SPARTANBURG","279473","70153628-0004","9/15/2017","$0.02","$0.00","-$0.02","$0.00","Current","PD","Full Return"
"187321","70153628","AC MARRIOTT","225 W MAIN ST, SPARTANBURG","279473","70153628-0005","9/21/2017","-$1,126.25","$0.00","$0.00","-$1,126.25","Current","PD","Credit Memo"
"187321","70199283","STAR FEED AND SEED","730 S MAIN ST, STAR","279539","70199283-0001","7/5/2017","$2,377.81","$0.00","$0.00","$2,377.81","Current","PD","4 Week Bill"
"187321","70199283","STAR FEED AND SEED","730 S MAIN ST, STAR","279539","70199283-0003","8/31/2017","-$244.76","$0.00","$0.00","-$244.76","Current","PD","Credit Memo"
"187321","70219728","1 - MOORESVILLE OFFI","177 KNOB HILL RD, MOORESVILLE","859912","70219728-0001","6/26/2017","$193.39","$0.00","$0.00","$193.39","Current","PD","Full Return"
"187321","70257256","1 - PIEDMONT ADVANT","2830 BOYER ST, CHARLOTTE","859772","70257256-0001","6/30/2017","$492.15","$0.00","$0.00","$492.15","Current","PD","Full Return"
"187321","70349982","1 - MOORESVILLE OFFI","177 KNOB HILL RD, MOORESVILLE","859432","70349982-0001","6/30/2017","$171.65","$0.00","$0.00","$171.65","Current","PD","Full Return"
"187321","70371098","1 - MOORESVILLE OFFI","177 KNOB HILL RD, MOORESVILLE","280062","70371098-0001","6/30/2017","$423.79","$0.00","$0.00","$423.79","Current","PD","Sales Invoice"
"187321","70455535","BA CHARLOTTE","2408 SARDIS RD N, CHARLOTTE","280224","70455535-0001","7/12/2017","$369.72","$0.00","-$19.01","$350.71","Current","PD","Full Return"
"187321","70455535","BA CHARLOTTE","2408 SARDIS RD N, CHARLOTTE","280224","70455535-0002","8/31/2017","-$18.98","$0.00","$0.00","-$18.98","Current","PD","Credit Memo"
"187321","70455535","BA CHARLOTTE","2408 SARDIS RD N, CHARLOTTE","280224","70455535-0003","1/3/2018","$18.98","$0.00","$0.00","$18.98","Current","PD","Credit Memo"
"187321","70540779","SHOPPES ON MONROE","10915 MONROE RD, MATTHEWS","280603","70540779-0001","7/11/2017","$736.56","$0.00","$0.00","$736.56","Current","PD","Full Return"
"187321","70540779","SHOPPES ON MONROE","10915 MONROE RD, MATTHEWS","280603","70540779-0002","8/31/2017","-$62.74","$0.00","$0.00","-$62.74","Current","PD","Credit Memo"
"187321","70585672","BA CHARLOTTE","2408 SARDIS RD N, CHARLOTTE","280541","70585672-0001","7/18/2017","$761.22","$0.00","$0.00","$761.22","Current","PD","Full Return"
"187321","70589313","ELIZABETH BAPTIST","1800 W. BROAD ST., ELIZABETHTOWN","280568","70589313-0001","7/11/2017","$256.52","$0.00","$0.00","$256.52","Current","PD","Full Return"
"187321","70589313","ELIZABETH BAPTIST","1800 W. BROAD ST., ELIZABETHTOWN","280568","70589313-0002","7/27/2017","-$38.52","$0.00","$0.00","-$38.52","Current","PD","Credit Memo"
"187321","70757454","AC MARRIOTT","225 W MAIN ST, SPARTANBURG","281087","70757454-0001","7/25/2017","$912.66","$0.00","$0.00","$912.66","Current","PD","4 Week Bill"
"187321","70757454","AC MARRIOTT","225 W MAIN ST, SPARTANBURG","281087","70757454-0002","8/22/2017","$667.80","$0.00","$0.00","$667.80","Current","PD","4 Week Bill"
"187321","70757454","AC MARRIOTT","225 W MAIN ST, SPARTANBURG","281087","70757454-0003","9/19/2017","$667.80","$0.00","$0.00","$667.80","Current","PD","4 Week Bill"
"187321","70757454","AC MARRIOTT","225 W MAIN ST, SPARTANBURG","281087","70757454-0004","10/17/2017","$667.80","$0.00","$0.00","$667.80","Current","PD","4 Week Bill"
"187321","70757454","AC MARRIOTT","225 W MAIN ST, SPARTANBURG","281087","70757454-0005","11/14/2017","$530.00","$0.00","$0.00","$530.00","Current","PD","Full Return"
"187321","70780300","DECRATIVE IRON NC","5945 ORR RD, CHARLOTTE","281076","70780300-0001","7/21/2017","$943.73","$0.00","$0.00","$943.73","Current","PD","Partial Return"
"187321","70780300","DECRATIVE IRON NC","5945 ORR RD, CHARLOTTE","281076","70780300-0002","7/26/2017","$611.80","$0.00","$0.00","$611.80","Current","PD","Full Return"
"187321","70882773","DECRATIVE IRON NC","5945 ORR RD, CHARLOTTE","ARTUR RUCHALA","70882773-0001","7/20/2017","$134.06","$0.00","$0.00","$134.06","Current","PD","Sales Invoice"
"187321","71081621","FEDERAL EXPRESS","4349 SCOTT FUTRELL DR, CHARLOTTE","281921","71081621-0001","8/14/2017","$1,547.11","$0.00","$0.00","$1,547.11","Current","PD","Full Return"
"187321","71313207","RANDY MARION","220 W PLAZA DR., MOORESVILLE","281921","71313207-0001","8/4/2017","$160.13","$0.00","$0.00","$160.13","Current","PD","Sales Invoice"
"187321","71386635","FEDERAL EXPRESS","4349 SCOTT FUTRELL DR, CHARLOTTE","281921","71386635-0001","8/8/2017","$278.85","$0.00","$0.00","$278.85","Current","PD","Sales Invoice"
"187321","71430789","DICKS SPORTING GOODS","5422 NEW HOPE COMMONS DR, DURHAM","282718","71430789-0001","8/16/2017","$509.57","$0.00","$0.00","$509.57","Current","PD","Full Return"
"187321","71573143","3 - WALMART - WALMAR","175 SC HWY 274, CLOVER","283091","71573143-0001","8/25/2017","$2,077.46","$0.00","-$34.04","$2,043.42","Current","PD","4 Week Bill"
"187321","71573143","3 - WALMART - WALMAR","175 SC HWY 274, CLOVER","283091","71573143-0002","9/22/2017","$1,806.75","$0.00","$0.00","$1,806.75","Current","PD","4 Week Bill"
"187321","71573143","3 - WALMART - WALMAR","175 SC HWY 274, CLOVER","283091","71573143-0003","10/20/2017","$1,806.75","$0.00","-$34.05","$1,772.70","Current","PD","4 Week Bill"
"187321","71575959","170074W9763","WAL-MART ROOF ACCESS, CLOVER","282965","71575959-0001","8/18/2017","$2,941.04","$0.00","$0.00","$2,941.04","Current","PD","4 Week Bill"
"187321","71575959","170074W9763","WAL-MART ROOF ACCESS, CLOVER","282965","71575959-0002","10/10/2017","$693.62","$0.00","$0.00","$693.62","Current","PD","4 Week Bill"
"187321","71575959","170074W9763","WAL-MART ROOF ACCESS, CLOVER","282965","71575959-0003","11/7/2017","$693.62","$0.00","$0.00","$693.62","Current","PD","4 Week Bill"
"187321","71575959","170074W9763","WAL-MART ROOF ACCESS, CLOVER","282965","71575959-0004","12/5/2017","$693.62","$0.00","$0.00","$693.62","Current","PD","4 Week Bill"
"187321","71575959","170074W9763","WAL-MART ROOF ACCESS, CLOVER","282965","71575959-0005","12/21/2017","$1,749.08","$0.00","$0.00","$1,749.08","Current","PD","Partial Return"
"187321","71606377","17007419771","RED VENTURES, FORT MILL","RED VENTURES","71606377-0001","8/17/2017","$171.60","$0.00","$0.00","$171.60","Current","PD","4 Week Bill"
"187321","71606377","17007419771","RED VENTURES, FORT MILL","RED VENTURES","71606377-0002","8/31/2017","$23.17","$0.00","$0.00","$23.17","Current","PD","Partial Return"
"187321","71606377","17007419771","RED VENTURES, FORT MILL","RED VENTURES","71606377-0003","8/31/2017","$69.50","$0.00","$0.00","$69.50","Current","PD","Full Return"
"187321","71879199","1 - MOORESVILLE OFFI","177 KNOB HILL RD, MOORESVILLE","283395","71879199-0001","8/25/2017","$2,935.63","$0.00","$0.00","$2,935.63","Current","PD","Equipment Sale"
"187321","72084572","RANDY MARION","220 W PLAZA DR., MOORESVILLE","284563","72084572-0001","9/15/2017","$1,564.04","$0.00","$0.00","$1,564.04","Current","PD","Full Return"
"187321","72197119","1 - DAIRY FRESH","2221 PATTERSON AVE, WINSTON SALEM","TO COME","72197119-0001","9/7/2017","$182.27","$0.00","$0.00","$182.27","Current","PD","Partial Return"
"187321","72197119","1 - DAIRY FRESH","2221 PATTERSON AVE, WINSTON SALEM","TO COME","72197119-0002","9/8/2017","$170.80","$0.00","$0.00","$170.80","Current","PD","Full Return"
"187321","72391374","1 - MOORESVILLE OFFI","177 KNOB HILL RD, MOORESVILLE","285856","72391374-0001","9/14/2017","$1,489.17","$0.00","$0.00","$1,489.17","Current","PD","Sales Invoice"
"187321","72418936","170074W9925","WAL-MART STAIR TOWER, FORT MILL","284961","72418936-0001","9/19/2017","$3,365.50","$0.00","$0.00","$3,365.50","Current","PD","4 Week Bill"
"187321","72418936","170074W9925","WAL-MART STAIR TOWER, FORT MILL","284961","72418936-0002","11/10/2017","$666.22","$0.00","$0.00","$666.22","Current","PD","4 Week Bill"
"187321","72418936","170074W9925","WAL-MART STAIR TOWER, FORT MILL","284961","72418936-0003","12/8/2017","$666.22","$0.00","$0.00","$666.22","Current","PD","4 Week Bill"
"187321","72418936","170074W9925","WAL-MART STAIR TOWER, FORT MILL","284961","72418936-0004","12/21/2017","$1,656.13","$0.00","$0.00","$1,656.13","Current","PD","Partial Return"
"187321","72457600","HUDSON POOLS","44084 US HWY 52 N, NEW LONDON","285433","72457600-0001","9/28/2017","$640.23","$0.00","$0.00","$640.23","Current","PD","Full Return"
"187321","72495941","WALMART INDIAN LAND","10048 CHARLOTTE HWY, FORT MILL","285511","72495941-0001","9/28/2017","$2,095.25","$0.00","$0.00","$2,095.25","Current","PD","4 Week Bill"
"187321","72495941","WALMART INDIAN LAND","10048 CHARLOTTE HWY, FORT MILL","285511","72495941-0002","10/26/2017","$1,823.25","$0.00","$0.00","$1,823.25","Current","PD","4 Week Bill"
"187321","72495941","WALMART INDIAN LAND","10048 CHARLOTTE HWY, FORT MILL","285511","72495941-0003","11/23/2017","$1,823.25","$0.00","$0.00","$1,823.25","Current","PD","4 Week Bill"
"187321","72495941","WALMART INDIAN LAND","10048 CHARLOTTE HWY, FORT MILL","285511","72495941-0004","12/4/2017","$267.30","$0.00","$0.00","$267.30","Current","PD","Full Return"
"187321","72587177","3 - WALMART - WALMAR","175 SC HWY 274, CLOVER","285685","72587177-0001","10/6/2017","$1,758.68","$0.00","$0.00","$1,758.68","Current","PD","4 Week Bill"
"187321","72587177","3 - WALMART - WALMAR","175 SC HWY 274, CLOVER","285685","72587177-0002","11/6/2017","$1,297.80","$0.00","$0.00","$1,297.80","Current","PD","Full Return"
"187321","72827700","1 - MOORESVILLE OFFI","177 KNOB HILL RD, MOORESVILLE","860834","72827700-0001","9/30/2017","$300.13","$0.00","$0.00","$300.13","Current","PD","Full Return"
"187321","72862975","1 - MOORESVILLE OFFI","177 KNOB HILL RD, MOORESVILLE","860834","72862975-0001","9/30/2017","$106.76","$0.00","$0.00","$106.76","Current","PD","Full Return"
"187321","72931346","AC MARRIOTT","225 W MAIN ST, SPARTANBURG","286626","72931346-0001","10/19/2017","$2,167.48","$0.00","$0.00","$2,167.48","Current","PD","4 Week Bill"
"187321","72931346","AC MARRIOTT","225 W MAIN ST, SPARTANBURG","286626","72931346-0002","11/16/2017","$1,922.62","$0.00","$0.00","$1,922.62","Current","PD","4 Week Bill"
"187321","72931346","AC MARRIOTT","225 W MAIN ST, SPARTANBURG","286626","72931346-0003","11/20/2017","$69.96","$0.00","$0.00","$69.96","Current","PD","Full Return"
"187321","72953324","FAIRMONT PUBLIC WORK","205 TOBACCO ST., FAIRMONT","286516","72953324-0001","10/5/2017","$620.60","$0.00","$0.00","$620.60","Current","PD","Full Return"
"187321","73118967","WALMART INDIAN LAND","10048 CHARLOTTE HWY, FORT MILL","286934","73118967-0001","10/25/2017","$1,799.80","$0.00","$0.00","$1,799.80","Current","PD","4 Week Bill"
"187321","73118967","WALMART INDIAN LAND","10048 CHARLOTTE HWY, FORT MILL","286934","73118967-0002","11/17/2017","$1,308.88","$0.00","$0.00","$1,308.88","Current","PD","Full Return"
"187321","73118967","WALMART INDIAN LAND","10048 CHARLOTTE HWY, FORT MILL","286934","73118967-0003","12/14/2017","-$1,308.88","$0.00","$0.00","-$1,308.88","Current","PD","Credit Memo"
"187321","73263163","AC MARRIOTT","225 W MAIN ST, SPARTANBURG","273760","73263163-0001","10/28/2017","$1,438.36","$0.00","$0.00","$1,438.36","Current","PD","4 Week Bill"
"187321","73499270","AC MARRIOTT","225 W MAIN ST, SPARTANBURG","287822","73499270-0003","11/2/2017","$2,111.90","$0.00","$0.00","$2,111.90","Current","PD","Full Return"
"187321","73645672","POWERTECH","9400 GLOBE CENTER DR, MORRISVILLE","288135","73645672-0001","11/13/2017","$1,667.73","$0.00","$0.00","$1,667.73","Current","PD","Full Return"
"187321","73946983","1 - MOORESVILLE OFFI","177 KNOB HILL RD, MOORESVILLE","288789","73946983-0002","11/24/2017","$1,109.25","$0.00","$0.00","$1,109.25","Current","PD","4 Week Bill"
"187321","73946983","1 - MOORESVILLE OFFI","177 KNOB HILL RD, MOORESVILLE","288789","73946983-0004","12/19/2017","-$265.98","$0.00","$0.00","-$265.98","Current","PD","Credit Memo"
"187321","73946983","1 - MOORESVILLE OFFI","177 KNOB HILL RD, MOORESVILLE","288789","73946983-0005","12/20/2017","$843.27","$0.00","$0.00","$843.27","Current","PD","4 Week Bill"
"187321","73946983","1 - MOORESVILLE OFFI","177 KNOB HILL RD, MOORESVILLE","292114","73946983-0006","1/17/2018","$843.27","$0.00","$0.00","$843.27","Current","PD","4 Week Bill"
"187321","74436310","14- GAYLOR ELECTRIC-","200 SANJOY RD., STATESVILLE","289990","74436310-0001","12/1/2017","$544.43","$0.00","$0.00","$544.43","Current","PD","Full Return"
"187321","74604280","1 - MODERN NISSAN","840 US HWY70 SE, HICKORY","290300","74604280-0001","12/12/2017","$988.34","$0.00","$0.00","$988.34","Current","PD","Full Return"
"187321","74699901","1 - MODERN NISSAN","840 US HWY70 SE, HICKORY","290533","74699901-0001","12/11/2017","$382.69","$0.00","$0.00","$382.69","Current","PD","Full Return"
"187321","74771483","1 - MOORESVILLE OFFI","177 KNOB HILL RD, MOORESVILLE","290754","74771483-0001","12/8/2017","$242.55","$0.00","$0.00","$242.55","Current","PD","Full Return"
"187321","75036186","BLUE HARBOR","106 CORPORATE PARK DRIVE, MOORESVILLE","291434","75036186-0001","12/20/2017","$69.39","$0.00","$0.00","$69.39","Current","PD","Full Return"
"187321","75112703","LEMASTER LIVESTOCK","1831 BOILING SPRINGS HWY, GAFFNEY","291079","75112703-0001","1/3/2018","$985.33","$0.00","$0.00","$985.33","Current","PD","Full Return"
"187321","75162221","WINDSOR RUN ASSISTED","2010 MCKEE RD, MATTHEWS","291909","75162221-0001","1/5/2018","$752.90","$0.00","$0.00","$752.90","Current","PD","Full Return"
"187321","75345110","CHIPS STORE","202 N MAIN ST., MT GILEAD","292199","75345110-0001","1/8/2018","$482.63","$0.00","$0.00","$482.63","Current","PD","Full Return"
"187321","75558478","TACO BELL","4601 N. TRYON ST, CHARLOTTE","292732","75558478-0001","1/19/2018","$677.20","$0.00","$0.00","$677.20","Current","PD","Full Return"
"187321","75693380","1 - VERIZON","1032 CONCORD PKWY N, CONCORD","293172","75693380-0001","1/22/2018","$245.25","$0.00","$0.00","$245.25","Current","PD","Full Return"
"187321","75710316","1 - MOORESVILLE OFFI","177 KNOB HILL RD, MOORESVILLE","293182","75710316-0002","1/25/2018","$565.84","$0.00","$0.00","$565.84","Current","PD","Full Return"
"187321","75746721","BUCHANAN PRINTING","1088 BOULDER RD, GREENSBORO","0","75746721-0001","1/24/2018","$472.90","$0.00","$0.00","$472.90","Current","PD","Full Return"
