"Account #","Contract #","Job #","Job_Location","Ordered By","PO_Number","Equipment Type","Equipment #","Make","Model","Quantity","Est Return Date","Day Rate","Week Rate","4 Week Rate","Billed Through","Date Rented"
"7006912","71642865","1 - VANCOUVER INTERN","3211 GRANT MCCONACHIE WAY, RICHMOND","QUINN, DAVEIDA","53247","007-0025 19' ELECT SCISSORLIFT","70002913","SKYJACK","SJIII3219","1","7/16/2019","$135.00","$400.00","$875.00","12/31/2019","6/18/2019"
"7006912","71960154","1 - VANCOUVER INTERN","3211 GRANT MCCONACHIE WAY, RICHMOND","Quinn, Daveida","56750","055-0235 5000LB IND FORKLIFT LOW MAST DF","70058224","MITSUBISHI","FG25N","1","10/28/2019","$125.44","$353.92","$957.60","12/23/2019","9/30/2019"
"7006912","71960154","1 - VANCOUVER INTERN","3211 GRANT MCCONACHIE WAY, RICHMOND","Quinn, Daveida","56750","150-0890 33LB PROPANE CYLINDER","33TANK","","","1","10/28/2019","$0.00","$0.00","$0.00","12/23/2019","9/30/2019"
"7006912","72205129","1 - VANCOUVER INTERN","3211 GRANT MCCONACHIE WAY, RICHMOND","QUINN, DAVEIDA","59324","007-0011 25-26' ELECT SCISSOR NARROW","70002901","SKYJACK","SJIII3226","1","12/23/2019","$125.00","$350.00","$675.00","","12/16/2019"
"","","","","","","","","","","4","","","","","",""
