"Account #","Contract #","Job #","Job_Location","Ordered By","PO_Number","Equipment Type","Equipment #","Make","Model","Quantity","Est Return Date","Day Rate","Week Rate","4 Week Rate","Billed Through","Date Rented"
"599520","96830796","1 - LAKE STEVENS HIG","2908 113TH AVE NE, LAKE STEVENS","RESCH, JOSH","N/R","068-0125 RIDE-ON FLOOR STRIPPER BATTERY","697282","NATIONAL","5700","1","12/13/2019","$615.00","$1,523.00","$4,004.00","","12/11/2019"
"599520","96969998","1 - LAKE STEVENS HIG","2908 113TH AVE NE, LAKE STEVENS","RESCH, JOSH","N/R","255-0160 ROAD PLATE - 10FT X 8FT X 1""","RCP10X8","","","1","12/23/2019","$12.00","$84.00","$252.00","","12/16/2019"
"599520","96969998","1 - LAKE STEVENS HIG","2908 113TH AVE NE, LAKE STEVENS","RESCH, JOSH","N/R","214-9568 DBL LOCK-N-LIFT TOOL W/ SLING","2149568","","","1","12/23/2019","$16.00","$16.00","$48.00","","12/16/2019"
"599520","97021537","1 - LAKE STEVENS HIG","2908 113TH AVE NE, LAKE STEVENS","RESCH, JOSH","N/R","044-0180 TRASH HOPPER ATTACH FOR FORKLIFT","10037778","STAR","1825","1","12/23/2019","$55.00","$214.00","$270.00","","12/18/2019"
"599520","97031066","1 - LAKE STEVENS HIG","2908 113TH AVE NE, LAKE STEVENS","RESCH, JOSH","N/R","005-1000 HYD HMR- SKIDSTEER ONLY","925340","INDECO","HP500QL","1","12/23/2019","$188.00","$560.00","$1,275.00","","12/18/2019"
"599520","97021613","1 - LAKE STEVENS HIG","2908 113TH AVE NE, LAKE STEVENS","RESCH, JOSH","N/R","007-0025 19' ELECT SCISSORLIFT","976286","JLG","1930ES","1","12/23/2019","$128.00","$300.00","$400.00","","12/18/2019"
"599520","97031066","1 - LAKE STEVENS HIG","2908 113TH AVE NE, LAKE STEVENS","RESCH, JOSH","N/R","049-0010 GRAPPLE BUCKET","917079","BOBCAT","7168340","1","12/23/2019","$102.00","$353.00","$595.00","","12/18/2019"
"599520","97031066","1 - LAKE STEVENS HIG","2908 113TH AVE NE, LAKE STEVENS","RESCH, JOSH","N/R","036-0130 24""-48"" HIGH VOLUME FAN 115V","743450","TRIANGLE","SPL4213GR","1","12/23/2019","$47.00","$170.00","$295.00","","12/18/2019"
"599520","97031066","1 - LAKE STEVENS HIG","2908 113TH AVE NE, LAKE STEVENS","RESCH, JOSH","N/R","036-0130 24""-48"" HIGH VOLUME FAN 115V","1011390","TRIANGLE","SPL4213GR","1","12/23/2019","$47.00","$170.00","$295.00","","12/18/2019"
"599520","97031066","1 - LAKE STEVENS HIG","2908 113TH AVE NE, LAKE STEVENS","RESCH, JOSH","N/R","048-0630 2100-2800LB TRACK SKIDSTEER","1010241","JOHN DEERE","323E","1","12/23/2019","$180.00","$620.00","$1,360.00","","12/18/2019"
"599520","97058526","1 - LAKE STEVENS HIG","2908 113TH AVE NE, LAKE STEVENS","RESCH, JOSH","N/R","036-0130 24""-48"" HIGH VOLUME FAN 115V","10147483","TRIANGLE","SPL4213","1","12/25/2019","$33.00","$119.00","$207.00","","12/18/2019"
"599520","97058526","1 - LAKE STEVENS HIG","2908 113TH AVE NE, LAKE STEVENS","RESCH, JOSH","N/R","007-0025 19' ELECT SCISSORLIFT","644732","GENIE","GS1930","1","12/25/2019","$128.00","$300.00","$400.00","","12/18/2019"
"599520","97122300","1 - LAKE STEVENS HIG","2908 113TH AVE NE, LAKE STEVENS","RESCH, JOSH","N/R","044-0180 TRASH HOPPER ATTACH FOR FORKLIFT","10153466","STAR","1420","1","12/27/2019","$55.00","$214.00","$270.00","","12/20/2019"
"599520","97122300","1 - LAKE STEVENS HIG","2908 113TH AVE NE, LAKE STEVENS","RESCH, JOSH","N/R","055-0220 5000LB IND FORKLIFT DF","10008620","MITSUBISHI","FG25N","1","12/27/2019","$180.00","$488.00","$1,013.00","","12/20/2019"
"599520","97122300","1 - LAKE STEVENS HIG","2908 113TH AVE NE, LAKE STEVENS","RESCH, JOSH","N/R","150-0890 33LB PROPANE CYLINDER","33TANK","","","1","12/27/2019","$0.00","$0.00","$0.00","","12/20/2019"
"599520","97122300","1 - LAKE STEVENS HIG","2908 113TH AVE NE, LAKE STEVENS","RESCH, JOSH","N/R","044-0180 TRASH HOPPER ATTACH FOR FORKLIFT","10024336","STAR","1815","1","12/27/2019","$55.00","$214.00","$270.00","","12/20/2019"
"599520","91494360","1 - NETCOMPLIANCE EN","2112 E 26TH ST, VANCOUVER","Curry, Mike","1313","073-0035 PAINT SPRAYER EL .4 GPM","1061031","TITAN TOOL","TITAN440 SKID","1","7/9/2019","$80.00","$300.00","$950.00","12/23/2019","7/8/2019"
"599520","96640889","JK GILL","426 SW HARVEY MILK ST, PORTLAND","GARICA, CARLOS","38-001326","068-0030 20"" FLOOR BUFFER ELECTRIC","10016995","TENNANT","FM20DS","1","12/20/2019","$50.00","$125.00","$235.00","","12/6/2019"
"599520","96640889","JK GILL","426 SW HARVEY MILK ST, PORTLAND","GARICA, CARLOS","38-001326","150-1587 TENNANT 5680 PAD DRIVER 14""","PADDRIVE14","","","2","12/20/2019","$20.00","$80.00","$160.00","","12/6/2019"
"599520","96640889","JK GILL","426 SW HARVEY MILK ST, PORTLAND","GARICA, CARLOS","38-001326","044-0001 PALLET TRUCK","10064996","TVH","SYHJ-5500","1","12/20/2019","$50.00","$175.00","$395.00","","12/6/2019"
"599520","96640889","JK GILL","426 SW HARVEY MILK ST, PORTLAND","GARICA, CARLOS","38-001326","068-0125 RIDE-ON FLOOR STRIPPER BATTERY","10015546","BLASTPRO","BRB-3100EV","1","12/20/2019","$615.00","$1,523.00","$4,004.00","","12/6/2019"
"599520","96640889","JK GILL","426 SW HARVEY MILK ST, PORTLAND","GARICA, CARLOS","38-001326","068-0030 20"" FLOOR BUFFER ELECTRIC","10016987","TENNANT","FM20DS","1","12/20/2019","$50.00","$125.00","$235.00","","12/6/2019"
"599520","96640889","JK GILL","426 SW HARVEY MILK ST, PORTLAND","GARICA, CARLOS","38-001326","044-0001 PALLET TRUCK","512305","DAYTON","4YX97","1","12/20/2019","$50.00","$175.00","$395.00","","12/6/2019"
"599520","96992633","WILSON ST","2000 NW WILSON ST, PORTLAND","GARICA, CARLOS","38-001329","048-0400 1500-2000LB SKIDSTEER","10255943","JOHN DEERE","318G","1","12/24/2019","$180.00","$620.00","$1,360.00","","12/17/2019"
"599520","96992633","WILSON ST","2000 NW WILSON ST, PORTLAND","GARICA, CARLOS","38-001329","049-0010 GRAPPLE BUCKET","10162359","BOBCAT","7168342","1","12/24/2019","$102.00","$353.00","$595.00","","12/17/2019"
"599520","96992633","WILSON ST","2000 NW WILSON ST, PORTLAND","GARICA, CARLOS","38-001329","005-1000 HYD HMR- SKIDSTEER ONLY","892656","INDECO","HP500QL","1","12/24/2019","$188.00","$560.00","$1,275.00","","12/17/2019"
"599520","97070735","WILSON ST","2000 NW WILSON ST, PORTLAND","GARICA, CARLOS","38-001329","150-0664 36"" COMPACT EXCAVATOR BUCKET","BEC36","","","1","12/26/2019","$50.00","$130.00","$275.00","","12/19/2019"
"599520","97070735","WILSON ST","2000 NW WILSON ST, PORTLAND","GARICA, CARLOS","38-001329","035-0130 6,000LB MINI EXCAVATOR","10217746","JOHN DEERE","26G","1","12/26/2019","$259.00","$1,020.00","$1,740.00","","12/19/2019"
"599520","97070735","WILSON ST","2000 NW WILSON ST, PORTLAND","GARICA, CARLOS","38-001329","150-0658 12"" COMPACT EXCAVATOR BUCKET","BEC12","","","1","12/26/2019","$0.00","$0.00","$0.00","","12/19/2019"
