"Job #","Job_Location","PO_Number","Equipment Type","Equipment #"
"1 - GGP RIVERCHASE G","2000 RIVERCHASE GALLERIA, HOOVER","190820618","007-0025 19' ELECT SCISSORLIFT","741416"
"1 - HD SUPPLY - ENCO","5300 MOUNTAIN CREEK PARKWAY, DALLAS","191050756","007-0015 37-40' ELECT SCISSOR WIDE SRT","822566"
"1 - HD SUPPLY - ENCO","5300 MOUNTAIN CREEK PARKWAY, DALLAS","191050756","007-0016 40-44' ELECT SCISSOR NARROW","883440"
"1 - HD SUPPLY - ENCO","5300 MOUNTAIN CREEK PARKWAY, DALLAS","191050756","007-0016 40-44' ELECT SCISSOR NARROW","10152810"
"1 - HD SUPPLY - ENCO","5300 MOUNTAIN CREEK PARKWAY, DALLAS","191050756","007-0015 37-40' ELECT SCISSOR WIDE SRT","10213824"
"1 - HD SUPPLY - ENCO","5300 MOUNTAIN CREEK PARKWAY, DALLAS","191050756","007-0016 40-44' ELECT SCISSOR NARROW","SME11492"
"1 - MACY'S PARKING G","4500 N ORACLE RD, TUCSON","190835677","007-0011 25-26' ELECT SCISSOR NARROW","974309"
"1 - MACY'S PARKING G","4500 N ORACLE RD, TUCSON","190835677","007-0011 25-26' ELECT SCISSOR NARROW","974306"
"1 - NESTLE USA","1 NESTLE CT, MCDONOUGH","191041992","058-0605 60' ART MANLIFT","602453"
"1 - PENSKE LOGISTICS","4532 UNITED DR","190932026","007-0016 40-44' ELECT SCISSOR NARROW","1071375"
"1 - PENSKE LOGISTICS","4532 UNITED DR","190932026","058-0610 60' STR ELEC MANLIFT W/GEN","592991"
"1 - PERIMETER MALL","4400 ASHFORD DUNWOODY RD, ATLANTA","190916948","007-0011 25-26' ELECT SCISSOR NARROW","586212"
"1 - PERIMETER MALL","4400 ASHFORD DUNWOODY RD, ATLANTA","190916948","058-0435 40' ART ELECT MANLIFT NARROW JIB","817257"
"1 - PUBLIX #632","2801 WADE HAMPTON BLVD, TAYLORS","ER7141","007-0008 20' ELECT SCISSORLIFT","769025"
"1 - PUBLIX #632","2801 WADE HAMPTON BLVD, TAYLORS","ER7141","007-0008 20' ELECT SCISSORLIFT","929668"
"1 - PUBLIX #632","2801 WADE HAMPTON BLVD, TAYLORS","ER7141","007-0008 20' ELECT SCISSORLIFT","468155"
"1 - PUBLIX #884","4320 DEERWOOD LAKE PKWY, JACKSONVILLE","ER7122","007-0025 19' ELECT SCISSORLIFT","469105"
"1 - PUBLIX 0209","12796 BAILEY COVE ROAD, HAYSLAND","ER7078","007-0025 19' ELECT SCISSORLIFT","779828"
"1 - PUBLIX 0209","12796 BAILEY COVE ROAD, HAYSLAND","ER7078","007-0025 19' ELECT SCISSORLIFT","1033425"
"1 - PUBLIX 0209","12796 BAILEY COVE ROAD, HAYSLAND","ER7078","007-0025 19' ELECT SCISSORLIFT","733003"
"1 - PUBLIX 1681","855 E BLOOMINGDALE AVE, BRANDON","ER7149","007-0025 19' ELECT SCISSORLIFT","924567"
"1 - PUBLIX 1681","855 E BLOOMINGDALE AVE, BRANDON","ER7149","007-0025 19' ELECT SCISSORLIFT","332984"
"1 - PUBLIX 1684","155 BARTRAM MARKET DR STE 100","191053570","007-0025 19' ELECT SCISSORLIFT","488738"
"1 - PUBLIX 1684","155 BARTRAM MARKET DR STE 100","191053570","007-0025 19' ELECT SCISSORLIFT","524583"
"1 - PUBLIX 1684","155 BARTRAM MARKET DR STE 100","191053570","007-0025 19' ELECT SCISSORLIFT","10140083"
"1 - PUBLIX 651","10130 NORTHLAKE RD, WEST PALM BEACH","191219669","007-0025 19' ELECT SCISSORLIFT","437429P"
"1 - PUBLIX 651","10130 NORTHLAKE RD, WEST PALM BEACH","191219669","007-0025 19' ELECT SCISSORLIFT","590985"
"1 - PUBLIX 651","10130 NORTHLAKE RD, WEST PALM BEACH","191219669","007-0025 19' ELECT SCISSORLIFT","471827"
"1 - THE MALL AT COLU","10300 LITTLE PATUXENT PKWY, COLUMBIA","190928051","007-0025 19' ELECT SCISSORLIFT","752835"
"1 - THE MALL AT COLU","10300 LITTLE PATUXENT PKWY, COLUMBIA","190928051","007-0025 19' ELECT SCISSORLIFT","918747"
"19034304861","625 DIVISION ST N, RICE","190959831","007-0028 30-33' ELECTRIC SCISSOR","603409"
"19034304861","625 DIVISION ST N, RICE","190959831","058-0424 40' STR MANLIFT","921263"
"2 - PUBLIX 1911 - PU","777 SW 12TH AVE, DEERFIELD BEACH","191024282","007-0029 30-33' ELECTRIC SCISSOR NARROW","925621"
"2 - PUBLIX 1911 - PU","777 SW 12TH AVE, DEERFIELD BEACH","191024282","007-0029 30-33' ELECTRIC SCISSOR NARROW","925341"
"2 - PUBLIX 1911 - PU","777 SW 12TH AVE, DEERFIELD BEACH","191024282","007-0029 30-33' ELECTRIC SCISSOR NARROW","645273"
"5 - PERFORMANCE FOOD","4905 NEW YORK AVE, ARLINGTON","190758010","007-0015 37-40' ELECT SCISSOR WIDE SRT","771959"
"7 - PERFORMANCE FOOD","3160 HANFORD DR, LEBANON","191119475","007-0015 37-40' ELECT SCISSOR WIDE SRT","10047106"
"7 - PERFORMANCE FOOD","3160 HANFORD DR, LEBANON","191119475","007-0016 40-44' ELECT SCISSOR NARROW","1047358"
"CUMBERLAND MALL ATL","2860 CUMBERLAND MALL SE, ATLANTA","190853256","058-0440 45' ART ELECT MANLIFT JIB","1019282"
"CUMBERLAND MALL ATL","2860 CUMBERLAND MALL SE, ATLANTA","190853256","007-0011 25-26' ELECT SCISSOR NARROW","712042"
"PUBLIX 871","5997 STIRLING RD, FL","191053550","007-0025 19' ELECT SCISSORLIFT","10000505"
"PUBLIX 871","5997 STIRLING RD, FL","191053550","007-0025 19' ELECT SCISSORLIFT","1035055"
"PUBLIX 871","5997 STIRLING RD, FL","191053550","007-0025 19' ELECT SCISSORLIFT","10002931"
