"Account #","Contract #","Job #","Job_Location","Ordered By","PO_Number","Equipment Type","Equipment #","Make","Model","Quantity","Est Return Date","Day Rate","Week Rate","4 Week Rate","Billed Through","Date Rented"
"426614","96271627","GENMAB","777 SCUDDERS MILL ROAD, PRINCETON","ROTONDELLA, MIKE","164044","007-0030 20' SINGLE MANLIFT S/P","10255498","GENIE","GR20","1","12/20/2019","$145.00","$300.00","$525.00","12/20/2019","11/22/2019"
"426614","96271627","GENMAB","777 SCUDDERS MILL ROAD, PRINCETON","ROTONDELLA, MIKE","164044","007-0030 20' SINGLE MANLIFT S/P","10255491","GENIE","GR20","1","12/20/2019","$145.00","$300.00","$525.00","12/20/2019","11/22/2019"
"426614","96709120","GENMAB","777 SCUDDERS MILL ROAD, PRINCETON","ROTONDELLA, MIKE","164353","007-0030 20' SINGLE MANLIFT S/P","10094724","GENIE","GR20","1","1/6/2020","$145.00","$300.00","$525.00","1/6/2020","12/9/2019"
"426614","96709120","GENMAB","777 SCUDDERS MILL ROAD, PRINCETON","ROTONDELLA, MIKE","164353","007-0030 20' SINGLE MANLIFT S/P","IA2671","GENIE","GR20","1","1/6/2020","$145.00","$300.00","$525.00","1/6/2020","12/9/2019"
"426614","94017123","NJ EDA","55 WILLOW ST, TRENTON","ANDERSON, BOB","162563","007-0025 19' ELECT SCISSORLIFT","994940","GENIE","GS1930","1","10/17/2019","$145.00","$250.00","$350.00","1/9/2020","9/19/2019"
"426614","94017123","NJ EDA","55 WILLOW ST, TRENTON","ANDERSON, BOB","162563","007-0025 19' ELECT SCISSORLIFT","536760","JLG","1930ES","1","10/17/2019","$145.00","$250.00","$350.00","1/9/2020","9/19/2019"
"426614","94789222","NJ EDA","55 WILLOW ST, TRENTON","KLITZ, DON","163200","007-0025 19' ELECT SCISSORLIFT","536759","JLG","1930ES","1","11/7/2019","$150.00","$250.00","$350.00","1/2/2020","10/10/2019"
"426614","94789222","NJ EDA","55 WILLOW ST, TRENTON","KLITZ, DON","163200","007-0025 19' ELECT SCISSORLIFT","904780","JLG","1930ES","1","11/7/2019","$150.00","$250.00","$350.00","1/2/2020","10/10/2019"
"426614","94789222","NJ EDA","55 WILLOW ST, TRENTON","KLITZ, DON","163200","007-0025 19' ELECT SCISSORLIFT","979756","GENIE","GS1930","1","11/7/2019","$150.00","$250.00","$350.00","1/2/2020","10/10/2019"
"426614","94789222","NJ EDA","55 WILLOW ST, TRENTON","KLITZ, DON","163200","007-0025 19' ELECT SCISSORLIFT","994941","GENIE","GS1930","1","11/7/2019","$150.00","$250.00","$350.00","1/2/2020","10/10/2019"
"426614","94936878","NJ EDA","55 WILLOW ST, TRENTON","KLITZ, DON","163287","007-0025 19' ELECT SCISSORLIFT","10001489","GENIE","GS1930","1","11/12/2019","$150.00","$295.00","$395.00","1/7/2020","10/15/2019"
"426614","96020809","NJ EDA","55 WILLOW ST, TRENTON","POGORZELSKI, GREG","163971","007-0025 19' ELECT SCISSORLIFT","10256710","GENIE","GS1930","1","12/12/2019","$145.00","$250.00","$350.00","12/12/2019","11/14/2019"
"426614","96020809","NJ EDA","55 WILLOW ST, TRENTON","POGORZELSKI, GREG","163971","007-0039 12' SINGLE MANLIFT S/P","IA1030","JLG","1230ES","1","12/12/2019","$125.00","$235.00","$400.00","12/12/2019","11/14/2019"
"426614","96020809","NJ EDA","55 WILLOW ST, TRENTON","POGORZELSKI, GREG","163971","007-0039 12' SINGLE MANLIFT S/P","IA2225","JLG","1230ES","1","12/12/2019","$125.00","$235.00","$400.00","12/12/2019","11/14/2019"
"426614","96560114","OCEAN COUNTY JUSTICE","350 COURT HOUSE LANE, TOMS RIVER","ANDERSON, BOB","164286","007-0030 20' SINGLE MANLIFT S/P","10006470","GENIE","GR20","1","12/31/2019","$145.00","$300.00","$525.00","12/31/2019","12/3/2019"
"426614","94009475","TRENTON BIOGAS","1600 LAMBETON ROAD, TRENTON","ROBINSON, DAVID","162698","007-0002 24' SINGLE MANLIFT PUSH-TYPE","600776","JLG","25AM","1","12/12/2019","$145.00","$300.00","$525.00","12/12/2019","9/19/2019"
"426614","91934604","UNIVERSITY HOSPITAL","150 BERGEN ST, NEWARK","KLITZ, DON","161146","061-0420 2000CFM NEGATIVE AIR MACHINE SCRUBBER","10072090","AIRREX","HEPA 2000","1","8/13/2019","$125.00","$550.00","$1,350.00","12/24/2019","8/6/2019"
"426614","95331624","UNIVERSITY HOSPITAL","150 BERGEN ST, NEWARK","KLITZ, DON","163451","061-0420 2000CFM NEGATIVE AIR MACHINE SCRUBBER","10023502","AIRREX","HEPA 2000","1","11/22/2019","$125.00","$550.00","$1,350.00","12/20/2019","10/25/2019"
