"Account #","Contract #","Job #","Job_Location","PO #","Invoice #","Date","Original Amount","Balance","Adjustment Amount","Adjusted Amount","Aging Days","Invoice Status","Invoice Type","Customer Name","Customer Address1","Customer Address2","Customer City","Customer State","Customer ZIP","Branch","Job Name","Job Address1","Job Address2","Job City","Job State","Job ZIP"
"2607549","78558986","12- TENNESSEE TITANS","1 TITANS WAY, NASHVILLE","01","78558986-0002","9/11/2018","-$754.31","$0.00","$0.00","-$754.31","Current","PD","Credit Memo","TENNESSEE TITANS FOOTBALL","460 GREAT CIRCLE ROAD","ATTN SHEREME SIEWNARINE","NASHVILLE","TN","37228","0126 - NASHVILLE PC126","TENNESSEE TITANS FOOTBALL","1 TITANS WAY","LOT M","NASHVILLE","TN","37213 1234"
"2607549","79045020","13- TENNESSEE TITANS","1 TITANS WAY, NASHVILLE","DOWNTOWN","79045020-0002","9/11/2018","-$61.18","$0.00","$0.00","-$61.18","Current","PD","Credit Memo","TENNESSEE TITANS FOOTBALL","460 GREAT CIRCLE ROAD","ATTN SHEREME SIEWNARINE","NASHVILLE","TN","37228","0126 - NASHVILLE PC126","TENNESSEE TITANS FOOTBALL","1 TITANS WAY","","NASHVILLE","TN","37213 1234"
"2607549","79695909","1 - PRACTICE FIELD","460 GREAT CIRCLE RD, NASHVILLE","PENDING","79695909-0003","7/28/2018","$2,050.68","$0.00","$0.00","$2,050.68","Current","PD","4 Week Bill","TENNESSEE TITANS FOOTBALL","460 GREAT CIRCLE ROAD","ATTN SHEREME SIEWNARINE","NASHVILLE","TN","37228","0126 - NASHVILLE PC126","PRACTICE FIELD","460 GREAT CIRCLE RD","","NASHVILLE","TN","37228 1404"
"2607549","79695909","13- NISSAN STADIUM -","1 TITANS WAY, NASHVILLE","N/R","79695909-0004","8/25/2018","$512.35","$0.00","$0.00","$512.35","Current","PD","4 Week Bill","TENNESSEE TITANS FOOTBALL","460 GREAT CIRCLE ROAD","ATTN SHEREME SIEWNARINE","NASHVILLE","TN","37228","0126 - NASHVILLE PC126","NISSAN STADIUM","1 TITANS WAY","","NASHVILLE","TN","37213 1234"
"2607549","79695909","13- NISSAN STADIUM -","1 TITANS WAY, NASHVILLE","PENDING","79695909-0005","9/11/2018","-$2,231.78","$0.00","$0.00","-$2,231.78","Current","PD","Credit Memo","TENNESSEE TITANS FOOTBALL","460 GREAT CIRCLE ROAD","ATTN SHEREME SIEWNARINE","NASHVILLE","TN","37228","0126 - NASHVILLE PC126","NISSAN STADIUM","1 TITANS WAY","","NASHVILLE","TN","37213 1234"
"2607549","79695909","13- NISSAN STADIUM -","1 TITANS WAY, NASHVILLE","PENDING","79695909-0006","9/11/2018","-$2,050.68","$0.00","$0.00","-$2,050.68","Current","PD","Credit Memo","TENNESSEE TITANS FOOTBALL","460 GREAT CIRCLE ROAD","ATTN SHEREME SIEWNARINE","NASHVILLE","TN","37228","0126 - NASHVILLE PC126","NISSAN STADIUM","1 TITANS WAY","","NASHVILLE","TN","37213 1234"
"2607549","79695909","13- NISSAN STADIUM -","1 TITANS WAY, NASHVILLE","N/R","79695909-0007","9/21/2018","$620.13","$0.00","$0.00","$620.13","Current","PD","Full Return","TENNESSEE TITANS FOOTBALL","460 GREAT CIRCLE ROAD","ATTN SHEREME SIEWNARINE","NASHVILLE","TN","37228","0126 - NASHVILLE PC126","NISSAN STADIUM","1 TITANS WAY","","NASHVILLE","TN","37213 1234"
"2607549","79695909","13- NISSAN STADIUM -","1 TITANS WAY, NASHVILLE","N/R","79695909-0008","11/15/2018","-$512.35","$0.00","$0.00","-$512.35","Current","PD","Credit Memo","TENNESSEE TITANS FOOTBALL","460 GREAT CIRCLE ROAD","ATTN SHEREME SIEWNARINE","NASHVILLE","TN","37228","0126 - NASHVILLE PC126","NISSAN STADIUM","1 TITANS WAY","","NASHVILLE","TN","37213 1234"
"2607549","79695909","13- NISSAN STADIUM -","1 TITANS WAY, NASHVILLE","N/R","79695909-0009","2/18/2019","-$512.93","$0.00","$0.00","-$512.93","Current","PD","Credit Memo","TENNESSEE TITANS FOOTBALL","460 GREAT CIRCLE ROAD","ATTN SHEREME SIEWNARINE","NASHVILLE","TN","37228","0126 - NASHVILLE PC126","NISSAN STADIUM","1 TITANS WAY","","NASHVILLE","TN","37213 1234"
"2607549","79695909","13- NISSAN STADIUM -","1 TITANS WAY, NASHVILLE","N/R","79695909-0010","2/18/2019","-$9.08","$0.00","$0.88","-$8.20","Current","PD","Credit Memo","TENNESSEE TITANS FOOTBALL","460 GREAT CIRCLE ROAD","ATTN SHEREME SIEWNARINE","NASHVILLE","TN","37228","0126 - NASHVILLE PC126","NISSAN STADIUM","1 TITANS WAY","","NASHVILLE","TN","37213 1234"
"2607549","79808781","13- TENNESSEE TITANS","1 TITANS WAY, NASHVILLE","PEND","79808781-0003","9/11/2018","-$2,382.62","$0.00","$0.00","-$2,382.62","Current","PD","Credit Memo","TENNESSEE TITANS FOOTBALL","460 GREAT CIRCLE ROAD","ATTN SHEREME SIEWNARINE","NASHVILLE","TN","37228","0135 - MURFREESBORO PC135","TENNESSEE TITANS FOOTBALL","1 TITANS WAY","","NASHVILLE","TN","37213 1234"
"2607549","80725277","1 - PRACTICE FIELD","460 GREAT CIRCLE RD, NASHVILLE","TBD","80725277-0002","8/10/2018","$2,641.03","$0.00","$0.00","$2,641.03","Current","PD","4 Week Bill","TENNESSEE TITANS FOOTBALL","460 GREAT CIRCLE ROAD","ATTN SHEREME SIEWNARINE","NASHVILLE","TN","37228","0127 - NASHVILLE POWER & HVAC PC0127","PRACTICE FIELD","460 GREAT CIRCLE RD","","NASHVILLE","TN","37228 1404"
"2607549","80725277","1 - PRACTICE FIELD","460 GREAT CIRCLE RD, NASHVILLE","TBD","80725277-0003","9/7/2018","$2,422.53","$0.00","$0.00","$2,422.53","Current","PD","4 Week Bill","TENNESSEE TITANS FOOTBALL","460 GREAT CIRCLE ROAD","ATTN SHEREME SIEWNARINE","NASHVILLE","TN","37228","0127 - NASHVILLE POWER & HVAC PC0127","PRACTICE FIELD","460 GREAT CIRCLE RD","","NASHVILLE","TN","37228 1404"
"2607549","80725277","1 - PRACTICE FIELD","460 GREAT CIRCLE RD, NASHVILLE","TBD","80725277-0004","9/28/2018","$59.54","$0.00","$0.00","$59.54","Current","PD","Damage Invoice","TENNESSEE TITANS FOOTBALL","460 GREAT CIRCLE ROAD","ATTN SHEREME SIEWNARINE","NASHVILLE","TN","37228","0127 - NASHVILLE POWER & HVAC PC0127","PRACTICE FIELD","460 GREAT CIRCLE RD","","NASHVILLE","TN","37228 1404"
"2607549","80725277","1 - PRACTICE FIELD","460 GREAT CIRCLE RD, NASHVILLE","TBD","80725277-0005","10/5/2018","$2,422.53","$0.00","$0.00","$2,422.53","Current","PD","4 Week Bill","TENNESSEE TITANS FOOTBALL","460 GREAT CIRCLE ROAD","ATTN SHEREME SIEWNARINE","NASHVILLE","TN","37228","0127 - NASHVILLE POWER & HVAC PC0127","PRACTICE FIELD","460 GREAT CIRCLE RD","","NASHVILLE","TN","37228 1404"
"2607549","80725277","1 - PRACTICE FIELD","460 GREAT CIRCLE RD, NASHVILLE","TBD","80725277-0006","11/2/2018","$2,422.53","$0.00","$0.00","$2,422.53","Current","PD","4 Week Bill","TENNESSEE TITANS FOOTBALL","460 GREAT CIRCLE ROAD","ATTN SHEREME SIEWNARINE","NASHVILLE","TN","37228","0127 - NASHVILLE POWER & HVAC PC0127","PRACTICE FIELD","460 GREAT CIRCLE RD","","NASHVILLE","TN","37228 1404"
"2607549","80725277","1 - PRACTICE FIELD","460 GREAT CIRCLE RD, NASHVILLE","TBD","80725277-0007","11/30/2018","$2,422.53","$0.00","$0.00","$2,422.53","Current","PD","4 Week Bill","TENNESSEE TITANS FOOTBALL","460 GREAT CIRCLE ROAD","ATTN SHEREME SIEWNARINE","NASHVILLE","TN","37228","0127 - NASHVILLE POWER & HVAC PC0127","PRACTICE FIELD","460 GREAT CIRCLE RD","","NASHVILLE","TN","37228 1404"
"2607549","80725277","1 - PRACTICE FIELD","460 GREAT CIRCLE RD, NASHVILLE","TBD","80725277-0008","12/28/2018","$2,422.53","$0.00","$0.00","$2,422.53","Current","PD","4 Week Bill","TENNESSEE TITANS FOOTBALL","460 GREAT CIRCLE ROAD","ATTN SHEREME SIEWNARINE","NASHVILLE","TN","37228","0127 - NASHVILLE POWER & HVAC PC0127","PRACTICE FIELD","460 GREAT CIRCLE RD","","NASHVILLE","TN","37228 1404"
"2607549","80743705","1 - ST. THOMAS PRACT","460 GREAT CIRCLE DR, NASHVILLE","N/R","80743705-0001","8/4/2018","$2,381.21","$0.00","$0.00","$2,381.21","Current","PD","4 Week Bill","TENNESSEE TITANS FOOTBALL","460 GREAT CIRCLE ROAD","ATTN SHEREME SIEWNARINE","NASHVILLE","TN","37228","1034 - COLUMBIA TN PC1034","ST. THOMAS PRACTICE COMPLEX","460 GREAT CIRCLE DR","PRACTICE BUBBLE","NASHVILLE","TN","37228 1404"
"2607549","80743705","17- TENNESSEE TITANS","460 GREAT CIRCLE ROAD, NASHVILLE","N/R","80743705-0002","9/18/2018","$113.18","$0.00","$0.00","$113.18","Current","PD","4 Week Bill","TENNESSEE TITANS FOOTBALL","460 GREAT CIRCLE ROAD","ATTN SHEREME SIEWNARINE","NASHVILLE","TN","37228","1034 - COLUMBIA TN PC1034","TENNESSEE TITANS FOOTBALL","460 GREAT CIRCLE ROAD","","NASHVILLE","TN","37228 1404"
"2607549","80743705","1 - ST. THOMAS PRACT","460 GREAT CIRCLE DR, NASHVILLE","N/R","80743705-0004","11/15/2018","-$2,381.21","$0.00","$0.00","-$2,381.21","Current","PD","Credit Memo","TENNESSEE TITANS FOOTBALL","460 GREAT CIRCLE ROAD","ATTN SHEREME SIEWNARINE","NASHVILLE","TN","37228","1034 - COLUMBIA TN PC1034","ST. THOMAS PRACTICE COMPLEX","460 GREAT CIRCLE DR","PRACTICE BUBBLE","NASHVILLE","TN","37228 1404"
"2607549","80743705","17- TENNESSEE TITANS","460 GREAT CIRCLE ROAD, NASHVILLE","N/R","80743705-0005","11/15/2018","-$109.25","$0.00","$0.00","-$109.25","Current","PD","Credit Memo","TENNESSEE TITANS FOOTBALL","460 GREAT CIRCLE ROAD","ATTN SHEREME SIEWNARINE","NASHVILLE","TN","37228","1034 - COLUMBIA TN PC1034","TENNESSEE TITANS FOOTBALL","460 GREAT CIRCLE ROAD","","NASHVILLE","TN","37228 1404"
"2607549","80743705","17- TENNESSEE TITANS","460 GREAT CIRCLE ROAD, NASHVILLE","N/R","80743705-0006","11/15/2018","-$3.93","$0.00","$0.00","-$3.93","Current","PD","Credit Memo","TENNESSEE TITANS FOOTBALL","460 GREAT CIRCLE ROAD","ATTN SHEREME SIEWNARINE","NASHVILLE","TN","37228","1034 - COLUMBIA TN PC1034","TENNESSEE TITANS FOOTBALL","460 GREAT CIRCLE ROAD","","NASHVILLE","TN","37228 1404"
"2607549","80996096","8 - TENNESSEE TITANS","1 TITANS WAY, NASHVILLE","LIGHTING","80996096-0001","7/31/2018","$717.72","$0.00","$0.00","$717.72","Current","PD","Full Return","TENNESSEE TITANS FOOTBALL","460 GREAT CIRCLE ROAD","ATTN SHEREME SIEWNARINE","NASHVILLE","TN","37228","0126 - NASHVILLE PC126","TENNESSEE TITANS FOOTBALL","1 TITANS WAY","LOT G","NASHVILLE","TN","37213 1234"
"2607549","80996096","8 - TENNESSEE TITANS","1 TITANS WAY, NASHVILLE","LIGHTING","80996096-0002","11/15/2018","-$717.72","$0.00","$0.00","-$717.72","Current","PD","Credit Memo","TENNESSEE TITANS FOOTBALL","460 GREAT CIRCLE ROAD","ATTN SHEREME SIEWNARINE","NASHVILLE","TN","37228","0126 - NASHVILLE PC126","TENNESSEE TITANS FOOTBALL","1 TITANS WAY","LOT G","NASHVILLE","TN","37213 1234"
"2607549","81195313","TITANS PRACTICE","5050 MALLORY LN, FRANKLIN","TITANS PRACTICE","81195313-0001","8/7/2018","$800.17","$0.00","$0.00","$800.17","Current","PD","Full Return","TENNESSEE TITANS FOOTBALL","460 GREAT CIRCLE ROAD","ATTN SHEREME SIEWNARINE","NASHVILLE","TN","37228","0126 - NASHVILLE PC126","CENTENNIAL HIGH SCHOOL","5050 MALLORY LN","FOOTBALL FIELD","FRANKLIN","TN","37067 1398"
"2607549","81204057","10- NISSAN STADIUM -","1 TITANS WAY, NASHVILLE","PEND","81204057-0001","8/13/2018","$6,472.03","$0.00","-$4.97","$6,467.06","Current","PD","4 Week Bill","TENNESSEE TITANS FOOTBALL","460 GREAT CIRCLE ROAD","ATTN SHEREME SIEWNARINE","NASHVILLE","TN","37228","0484 - NASHVILLE CC PC484","NISSAN STADIUM","1 TITANS WAY","LOT P","NASHVILLE","TN","37213 1234"
"2607549","81204057","10- NISSAN STADIUM -","1 TITANS WAY, NASHVILLE","PEND","81204057-0002","9/10/2018","$6,008.80","$0.00","$0.00","$6,008.80","Current","PD","4 Week Bill","TENNESSEE TITANS FOOTBALL","460 GREAT CIRCLE ROAD","ATTN SHEREME SIEWNARINE","NASHVILLE","TN","37228","0484 - NASHVILLE CC PC484","NISSAN STADIUM","1 TITANS WAY","LOT P","NASHVILLE","TN","37213 1234"
"2607549","81293206","10- NISSAN STADIUM -","1 TITANS WAY, NASHVILLE","KENNY CHESNEY","81293206-0001","8/13/2018","$3,361.10","$0.00","$0.00","$3,361.10","Current","PD","Full Return","TENNESSEE TITANS FOOTBALL","460 GREAT CIRCLE ROAD","ATTN SHEREME SIEWNARINE","NASHVILLE","TN","37228","0127 - NASHVILLE POWER & HVAC PC0127","NISSAN STADIUM","1 TITANS WAY","LOT P","NASHVILLE","TN","37213 1234"
"2607549","81513620","12- NISSAN STADIUM -","1 TITANS WAY, NASHVILLE","N/R","81513620-0001","8/14/2018","$109.25","$0.00","$0.00","$109.25","Current","PD","Sales Invoice","TENNESSEE TITANS FOOTBALL","460 GREAT CIRCLE ROAD","ATTN SHEREME SIEWNARINE","NASHVILLE","TN","37228","0126 - NASHVILLE PC126","NISSAN STADIUM","1 TITANS WAY","","NASHVILLE","TN","37213 1234"
"2607549","81528516","1 - ST. THOMAS PRACT","460 GREAT CIRCLE DR, NASHVILLE","PENDING","81528516-0001","8/22/2018","$1,069.28","$0.00","$0.00","$1,069.28","Current","PD","Full Return","TENNESSEE TITANS FOOTBALL","460 GREAT CIRCLE ROAD","ATTN SHEREME SIEWNARINE","NASHVILLE","TN","37228","0126 - NASHVILLE PC126","ST. THOMAS PRACTICE COMPLEX","460 GREAT CIRCLE DR","PRACTICE BUBBLE","NASHVILLE","TN","37228 1404"
"2607549","81528516","1 - ST. THOMAS PRACT","460 GREAT CIRCLE DR, NASHVILLE","PENDING","81528516-0002","11/15/2018","-$1,069.28","$0.00","$0.00","-$1,069.28","Current","PD","Credit Memo","TENNESSEE TITANS FOOTBALL","460 GREAT CIRCLE ROAD","ATTN SHEREME SIEWNARINE","NASHVILLE","TN","37228","0126 - NASHVILLE PC126","ST. THOMAS PRACTICE COMPLEX","460 GREAT CIRCLE DR","PRACTICE BUBBLE","NASHVILLE","TN","37228 1404"
"2607549","81634785","14- NISSAN STADIUM -","1 TITANS WAY, NASHVILLE","BUD LIGHT LOSS","81634785-0001","8/17/2018","$340.23","$0.00","$0.00","$340.23","Current","PD","Full Return","TENNESSEE TITANS FOOTBALL","460 GREAT CIRCLE ROAD","ATTN SHEREME SIEWNARINE","NASHVILLE","TN","37228","0135 - MURFREESBORO PC135","NISSAN STADIUM","1 TITANS WAY","NORTH END ZONE STAGE","NASHVILLE","TN","37213 1234"
"2607549","81634785","14- NISSAN STADIUM -","1 TITANS WAY, NASHVILLE","BUD LIGHT LOSS","81634785-0002","11/15/2018","-$340.23","$0.00","$0.00","-$340.23","Current","PD","Credit Memo","TENNESSEE TITANS FOOTBALL","460 GREAT CIRCLE ROAD","ATTN SHEREME SIEWNARINE","NASHVILLE","TN","37228","0135 - MURFREESBORO PC135","NISSAN STADIUM","1 TITANS WAY","NORTH END ZONE STAGE","NASHVILLE","TN","37213 1234"
"2607549","81652119","1 - MILLER LITE RIDE","1 TITANS WAY - LOT T, NASHVILLE","PRE-SEASON TAMPA BAY BUCS","81652119-0001","8/27/2018","$1,636.16","$0.00","$0.00","$1,636.16","Current","PD","Full Return","TENNESSEE TITANS FOOTBALL","460 GREAT CIRCLE ROAD","ATTN SHEREME SIEWNARINE","NASHVILLE","TN","37228","0127 - NASHVILLE POWER & HVAC PC0127","MILLER LITE RIDE SHARE","1 TITANS WAY - LOT T","","NASHVILLE","TN","37211"
"2607549","81655381","15- TENNESSEE TITANS","1 TITANS WAY - TRIANGLE BY, NASHVILLE","BUD LIGHT TRIANGLE","81655381-0001","8/20/2018","$657.14","$0.00","$0.00","$657.14","Current","PD","Full Return","TENNESSEE TITANS FOOTBALL","460 GREAT CIRCLE ROAD","ATTN SHEREME SIEWNARINE","NASHVILLE","TN","37228","0127 - NASHVILLE POWER & HVAC PC0127","TENNESSEE TITANS FOOTBALL","1 TITANS WAY","TRIANGLE BY LOT J GATE 10","NASHVILLE","TN","37211"
"2607549","81726639","1 - NAIISAN STADIUM","1 TITANS WAY, NASHVILLE","TAYLOR SWIFT","81726639-0002","8/27/2018","$5,936.76","$0.00","$0.00","$5,936.76","Current","PD","Full Return","TENNESSEE TITANS FOOTBALL","460 GREAT CIRCLE ROAD","ATTN SHEREME SIEWNARINE","NASHVILLE","TN","37228","0127 - NASHVILLE POWER & HVAC PC0127","NISSAN STADIUM","1 TITANS WAY","LOT T","NASHVILLE","TN","37213 1234"
"2607549","81729580","5 - TENNESSEE TITANS","1 TITANS WAY, NASHVILLE","N/R","81729580-0001","8/23/2018","$1,085.42","$0.00","$0.00","$1,085.42","Current","PD","Full Return","TENNESSEE TITANS FOOTBALL","460 GREAT CIRCLE ROAD","ATTN SHEREME SIEWNARINE","NASHVILLE","TN","37228","0134 - CLARKSVILLE PC134","TENNESSEE TITANS FOOTBALL","1 TITANS WAY","","NASHVILLE","TN","37213 1234"
"2607549","81729580","5 - TENNESSEE TITANS","1 TITANS WAY, NASHVILLE","N/R","81729580-0002","11/15/2018","-$1,085.42","$0.00","$0.00","-$1,085.42","Current","PD","Credit Memo","TENNESSEE TITANS FOOTBALL","460 GREAT CIRCLE ROAD","ATTN SHEREME SIEWNARINE","NASHVILLE","TN","37228","0134 - CLARKSVILLE PC134","TENNESSEE TITANS FOOTBALL","1 TITANS WAY","","NASHVILLE","TN","37213 1234"
"2607549","81753187","5 - TENNESSEE TITANS","1 TITANS WAY, NASHVILLE","N/R","81753187-0001","9/4/2018","$225.33","$0.00","$0.00","$225.33","Current","PD","Full Return","TENNESSEE TITANS FOOTBALL","460 GREAT CIRCLE ROAD","ATTN SHEREME SIEWNARINE","NASHVILLE","TN","37228","0126 - NASHVILLE PC126","TENNESSEE TITANS FOOTBALL","1 TITANS WAY","","NASHVILLE","TN","37213 1234"
"2607549","82041224","1 - MILLER LITE RIDE","1 TITANS WAY - LOT T, NASHVILLE","PRE-SEAS MINNESOTA VIKINGS","82041224-0001","8/31/2018","$852.16","$0.00","$0.00","$852.16","Current","PD","Full Return","TENNESSEE TITANS FOOTBALL","460 GREAT CIRCLE ROAD","ATTN SHEREME SIEWNARINE","NASHVILLE","TN","37228","0127 - NASHVILLE POWER & HVAC PC0127","MILLER LITE RIDE SHARE","1 TITANS WAY - LOT T","","NASHVILLE","TN","37211"
"2607549","82154863","16- TENNESSEE TITANS","1201 NORTHGATE BUSINESS PKWY, MADISON","NA","82154863-0001","9/10/2018","$894.59","$0.00","$0.00","$894.59","Current","PD","Full Return","TENNESSEE TITANS FOOTBALL","460 GREAT CIRCLE ROAD","ATTN SHEREME SIEWNARINE","NASHVILLE","TN","37228","0136 - RIVERGATE PC136","TENNESSEE TITANS FOOTBALL","1201 NORTHGATE BUSINESS PKWY","CPU","MADISON","TN","37115 2475"
"2607549","82154863","16- TENNESSEE TITANS","1201 NORTHGATE BUSINESS PKWY, MADISON","NA","82154863-0002","11/15/2018","-$894.59","$0.00","$0.00","-$894.59","Current","PD","Credit Memo","TENNESSEE TITANS FOOTBALL","460 GREAT CIRCLE ROAD","ATTN SHEREME SIEWNARINE","NASHVILLE","TN","37228","0136 - RIVERGATE PC136","TENNESSEE TITANS FOOTBALL","1201 NORTHGATE BUSINESS PKWY","CPU","MADISON","TN","37115 2475"
"2607549","82354342","10- NISSAN STADIUM -","1 TITANS WAY, NASHVILLE","SOCCER","82354342-0001","9/12/2018","$209.76","$0.00","$0.00","$209.76","Current","PD","Full Return","TENNESSEE TITANS FOOTBALL","460 GREAT CIRCLE ROAD","ATTN SHEREME SIEWNARINE","NASHVILLE","TN","37228","0127 - NASHVILLE POWER & HVAC PC0127","NISSAN STADIUM","1 TITANS WAY","LOT P","NASHVILLE","TN","37213 1234"
"2607549","82496593","15- TENNESSEE TITANS","1 TITANS WAY - TRIANGLE BY, NASHVILLE","BUD LIGHT TRIANGLE","82496593-0001","9/17/2018","$645.13","$0.00","$0.00","$645.13","Current","PD","Full Return","TENNESSEE TITANS FOOTBALL","460 GREAT CIRCLE ROAD","ATTN SHEREME SIEWNARINE","NASHVILLE","TN","37228","0127 - NASHVILLE POWER & HVAC PC0127","TENNESSEE TITANS FOOTBALL","1 TITANS WAY","TRIANGLE BY LOT J GATE 10","NASHVILLE","TN","37211"
"2607549","82500989","1 - MILLER LITE RIDE","1 TITANS WAY - LOT T, NASHVILLE","HOME OPENER HOUSTON TEXANS","82500989-0001","9/17/2018","$925.35","$0.00","$0.00","$925.35","Current","PD","Full Return","TENNESSEE TITANS FOOTBALL","460 GREAT CIRCLE ROAD","ATTN SHEREME SIEWNARINE","NASHVILLE","TN","37228","0127 - NASHVILLE POWER & HVAC PC0127","MILLER LITE RIDE SHARE","1 TITANS WAY - LOT T","","NASHVILLE","TN","37211"
"2607549","82504699","10- NISSAN STADIUM -","1 TITANS WAY, NASHVILLE","LOT M","82504699-0001","9/18/2018","$864.38","$0.00","$0.00","$864.38","Current","PD","Full Return","TENNESSEE TITANS FOOTBALL","460 GREAT CIRCLE ROAD","ATTN SHEREME SIEWNARINE","NASHVILLE","TN","37228","0126 - NASHVILLE PC126","NISSAN STADIUM","1 TITANS WAY","LOT P","NASHVILLE","TN","37213 1234"
"2607549","82504699","10- NISSAN STADIUM -","1 TITANS WAY, NASHVILLE","LOT M","82504699-0002","2/18/2019","-$820.26","$0.00","$0.00","-$820.26","Current","PD","Credit Memo","TENNESSEE TITANS FOOTBALL","460 GREAT CIRCLE ROAD","ATTN SHEREME SIEWNARINE","NASHVILLE","TN","37228","0126 - NASHVILLE PC126","NISSAN STADIUM","1 TITANS WAY","LOT P","NASHVILLE","TN","37213 1234"
"2607549","82504699","10- NISSAN STADIUM -","1 TITANS WAY, NASHVILLE","LOT M","82504699-0003","2/18/2019","-$3.74","$0.00","$0.87","-$2.87","Current","PD","Credit Memo","TENNESSEE TITANS FOOTBALL","460 GREAT CIRCLE ROAD","ATTN SHEREME SIEWNARINE","NASHVILLE","TN","37228","0126 - NASHVILLE PC126","NISSAN STADIUM","1 TITANS WAY","LOT P","NASHVILLE","TN","37213 1234"
"2607549","82939194","1 - MILLER LITE RIDE","1 TITANS WAY - LOT T, NASHVILLE","PHILADELPHIA EAGLES","82939194-0002","10/1/2018","$727.06","$0.00","$0.00","$727.06","Current","PD","Full Return","TENNESSEE TITANS FOOTBALL","460 GREAT CIRCLE ROAD","ATTN SHEREME SIEWNARINE","NASHVILLE","TN","37228","0127 - NASHVILLE POWER & HVAC PC0127","MILLER LITE RIDE SHARE","1 TITANS WAY - LOT T","","NASHVILLE","TN","37211"
"2607549","82941504","15- TENNESSEE TITANS","1 TITANS WAY - TRIANGLE BY, NASHVILLE","BUD LIGHT TRIANGLE","82941504-0001","10/1/2018","$657.14","$0.00","$0.00","$657.14","Current","PD","Full Return","TENNESSEE TITANS FOOTBALL","460 GREAT CIRCLE ROAD","ATTN SHEREME SIEWNARINE","NASHVILLE","TN","37228","0127 - NASHVILLE POWER & HVAC PC0127","TENNESSEE TITANS FOOTBALL","1 TITANS WAY","TRIANGLE BY LOT J GATE 10","NASHVILLE","TN","37211"
"2607549","83030061","11- NISSAN STADIUM -","1 TITANS WAY, NASHVILLE","TO COME","83030061-0001","10/10/2018","$1,837.05","$0.00","$0.00","$1,837.05","Current","PD","Full Return","TENNESSEE TITANS FOOTBALL","460 GREAT CIRCLE ROAD","ATTN SHEREME SIEWNARINE","NASHVILLE","TN","37228","0127 - NASHVILLE POWER & HVAC PC0127","NISSAN STADIUM","1 TITANS WAY","","NASHVILLE","TN","37213 1234"
"2607549","83030130","11- NISSAN STADIUM -","1 TITANS WAY, NASHVILLE","CONCERT","83030130-0001","10/10/2018","$5,139.41","$0.00","$0.00","$5,139.41","Current","PD","Full Return","TENNESSEE TITANS FOOTBALL","460 GREAT CIRCLE ROAD","ATTN SHEREME SIEWNARINE","NASHVILLE","TN","37228","0127 - NASHVILLE POWER & HVAC PC0127","NISSAN STADIUM","1 TITANS WAY","","NASHVILLE","TN","37213 1234"
"2607549","83030130","11- NISSAN STADIUM -","1 TITANS WAY, NASHVILLE","CONCERT","83030130-0002","12/3/2018","-$901.32","$0.00","$0.00","-$901.32","Current","PD","Credit Memo","TENNESSEE TITANS FOOTBALL","460 GREAT CIRCLE ROAD","ATTN SHEREME SIEWNARINE","NASHVILLE","TN","37228","0127 - NASHVILLE POWER & HVAC PC0127","NISSAN STADIUM","1 TITANS WAY","","NASHVILLE","TN","37213 1234"
"2607549","83195574","2 - NISSAN STADIUM -","1 TITANS WAY, NASHVILLE","N/R","83195574-0001","10/12/2018","$1,365.08","$0.00","$0.00","$1,365.08","Current","PD","Partial Return","TENNESSEE TITANS FOOTBALL","460 GREAT CIRCLE ROAD","ATTN SHEREME SIEWNARINE","NASHVILLE","TN","37228","0126 - NASHVILLE PC126","NISSAN STADIUM","1 TITANS WAY","","NASHVILLE","TN","37213 1234"
"2607549","83195574","2 - NISSAN STADIUM -","1 TITANS WAY, NASHVILLE","N/R","83195574-0002","10/22/2018","$2,577.26","$0.00","$0.00","$2,577.26","Current","PD","4 Week Bill","TENNESSEE TITANS FOOTBALL","460 GREAT CIRCLE ROAD","ATTN SHEREME SIEWNARINE","NASHVILLE","TN","37228","0126 - NASHVILLE PC126","NISSAN STADIUM","1 TITANS WAY","","NASHVILLE","TN","37213 1234"
"2607549","83204979","10- TENNESSEE TITANS","1 TITANS WAY, NASHVILLE","N/R","83204979-0001","10/8/2018","$167.33","$0.00","$0.00","$167.33","Current","PD","Full Return","TENNESSEE TITANS FOOTBALL","460 GREAT CIRCLE ROAD","ATTN SHEREME SIEWNARINE","NASHVILLE","TN","37228","0126 - NASHVILLE PC126","TENNESSEE TITANS FOOTBALL","1 TITANS WAY","LOT M","NASHVILLE","TN","37213"
"2607549","83205565","10- TENNESSEE TITANS","1 TITANS WAY, NASHVILLE","N/R","83205565-0001","10/12/2018","$1,517.69","$0.00","$0.00","$1,517.69","Current","PD","Full Return","TENNESSEE TITANS FOOTBALL","460 GREAT CIRCLE ROAD","ATTN SHEREME SIEWNARINE","NASHVILLE","TN","37228","0126 - NASHVILLE PC126","TENNESSEE TITANS FOOTBALL","1 TITANS WAY","LOT M","NASHVILLE","TN","37213"
"2607549","83281348","1 - TICKET OFFICE","1 TITANS WAY, NASHVILLE","NR","83281348-0001","10/8/2018","$173.54","$0.00","$0.00","$173.54","Current","PD","Full Return","TENNESSEE TITANS FOOTBALL","460 GREAT CIRCLE ROAD","ATTN SHEREME SIEWNARINE","NASHVILLE","TN","37228","0126 - NASHVILLE PC126","TICKET OFFICE","1 TITANS WAY","","NASHVILLE","TN","37213"
"2607549","83468559","1 - MILLER LITE RIDE","1 TITANS WAY - LOT T, NASHVILLE","BALTIMORE RAVENS","83468559-0001","10/15/2018","$828.12","$0.00","$0.00","$828.12","Current","PD","Full Return","TENNESSEE TITANS FOOTBALL","460 GREAT CIRCLE ROAD","ATTN SHEREME SIEWNARINE","NASHVILLE","TN","37228","0127 - NASHVILLE POWER & HVAC PC0127","MILLER LITE RIDE SHARE","1 TITANS WAY - LOT T","","NASHVILLE","TN","37211"
"2607549","83471954","15- TENNESSEE TITANS","1 TITANS WAY - TRIANGLE BY, NASHVILLE","BUD LIGHT TRIANGLE","83471954-0001","10/15/2018","$644.04","$0.00","$0.00","$644.04","Current","PD","Full Return","TENNESSEE TITANS FOOTBALL","460 GREAT CIRCLE ROAD","ATTN SHEREME SIEWNARINE","NASHVILLE","TN","37228","0127 - NASHVILLE POWER & HVAC PC0127","TENNESSEE TITANS FOOTBALL","1 TITANS WAY","TRIANGLE BY LOT J GATE 10","NASHVILLE","TN","37211"
"2607549","83473098","10- TENNESSEE TITANS","1 TITANS WAY, NASHVILLE","PENDING","83473098-0001","10/16/2018","$818.16","$0.00","$0.00","$818.16","Current","PD","Full Return","TENNESSEE TITANS FOOTBALL","460 GREAT CIRCLE ROAD","ATTN SHEREME SIEWNARINE","NASHVILLE","TN","37228","0126 - NASHVILLE PC126","TENNESSEE TITANS FOOTBALL","1 TITANS WAY","LOT M","NASHVILLE","TN","37213"
"2607549","83625310","10- TENNESSEE TITANS","1 TITANS WAY, NASHVILLE","N/R","83625310-0001","10/23/2018","$2,603.30","$0.00","-$1.77","$2,601.53","Current","PD","Full Return","TENNESSEE TITANS FOOTBALL","460 GREAT CIRCLE ROAD","ATTN SHEREME SIEWNARINE","NASHVILLE","TN","37228","0134 - CLARKSVILLE PC134","TENNESSEE TITANS FOOTBALL","1 TITANS WAY","LOT M","NASHVILLE","TN","37213"
"2607549","83625310","10- TENNESSEE TITANS","1 TITANS WAY, NASHVILLE","N/R","83625310-0002","2/18/2019","-$2,543.78","$0.00","$0.00","-$2,543.78","Current","PD","Credit Memo","TENNESSEE TITANS FOOTBALL","460 GREAT CIRCLE ROAD","ATTN SHEREME SIEWNARINE","NASHVILLE","TN","37228","0134 - CLARKSVILLE PC134","TENNESSEE TITANS FOOTBALL","1 TITANS WAY","LOT M","NASHVILLE","TN","37213"
"2607549","83706109","1 - PRACTICE FIELD","460 GREAT CIRCLE RD, NASHVILLE","N/R","83706109-0001","10/30/2018","$2,671.36","$0.00","-$15.40","$2,655.96","Current","PD","Full Return","TENNESSEE TITANS FOOTBALL","460 GREAT CIRCLE ROAD","ATTN SHEREME SIEWNARINE","NASHVILLE","TN","37228","0126 - NASHVILLE PC126","PRACTICE FIELD","460 GREAT CIRCLE RD","","NASHVILLE","TN","37228 1404"
"2607549","83706109","1 - PRACTICE FIELD","460 GREAT CIRCLE RD, NASHVILLE","N/R","83706109-0002","2/18/2019","-$2,449.71","$0.00","$0.00","-$2,449.71","Current","PD","Credit Memo","TENNESSEE TITANS FOOTBALL","460 GREAT CIRCLE ROAD","ATTN SHEREME SIEWNARINE","NASHVILLE","TN","37228","0126 - NASHVILLE PC126","PRACTICE FIELD","460 GREAT CIRCLE RD","","NASHVILLE","TN","37228 1404"
"2607549","84373027","1 - MILLER LITE RIDE","1 TITANS WAY - LOT T, NASHVILLE","NEW ENGLAND PATRIOTS","84373027-0001","11/12/2018","$847.24","$0.00","$0.00","$847.24","Current","PD","Full Return","TENNESSEE TITANS FOOTBALL","460 GREAT CIRCLE ROAD","ATTN SHEREME SIEWNARINE","NASHVILLE","TN","37228","0127 - NASHVILLE POWER & HVAC PC0127","MILLER LITE RIDE SHARE","1 TITANS WAY - LOT T","","NASHVILLE","TN","37211"
"2607549","84373186","15- TENNESSEE TITANS","1 TITANS WAY - TRIANGLE BY, NASHVILLE","BUD LIGHT TRIANGLE","84373186-0001","11/12/2018","$651.14","$0.00","$0.00","$651.14","Current","PD","Full Return","TENNESSEE TITANS FOOTBALL","460 GREAT CIRCLE ROAD","ATTN SHEREME SIEWNARINE","NASHVILLE","TN","37228","0127 - NASHVILLE POWER & HVAC PC0127","TENNESSEE TITANS FOOTBALL","1 TITANS WAY","TRIANGLE BY LOT J GATE 10","NASHVILLE","TN","37211"
"2607549","84379937","10- TENNESSEE TITANS","1 TITANS WAY, NASHVILLE","PENDING","84379937-0001","11/20/2018","$1,267.09","$0.00","$0.00","$1,267.09","Current","PD","Full Return","TENNESSEE TITANS FOOTBALL","460 GREAT CIRCLE ROAD","ATTN SHEREME SIEWNARINE","NASHVILLE","TN","37228","0126 - NASHVILLE PC126","TENNESSEE TITANS FOOTBALL","1 TITANS WAY","LOT M","NASHVILLE","TN","37213"
"2607549","84505629","10- TENNESSEE TITANS","1 TITANS WAY, NASHVILLE","PENDING","84505629-0001","12/1/2018","$2,471.05","$0.00","$0.00","$2,471.05","Current","PD","4 Week Bill","TENNESSEE TITANS FOOTBALL","460 GREAT CIRCLE ROAD","ATTN SHEREME SIEWNARINE","NASHVILLE","TN","37228","0126 - NASHVILLE PC126","TENNESSEE TITANS FOOTBALL","1 TITANS WAY","LOT M","NASHVILLE","TN","37213"
"2607549","84505629","10- TENNESSEE TITANS","1 TITANS WAY, NASHVILLE","NR","84505629-0002","12/14/2018","$218.50","$0.00","$0.00","$218.50","Current","PD","Full Return","TENNESSEE TITANS FOOTBALL","460 GREAT CIRCLE ROAD","ATTN SHEREME SIEWNARINE","NASHVILLE","TN","37228","0126 - NASHVILLE PC126","TENNESSEE TITANS FOOTBALL","1 TITANS WAY","LOT M","NASHVILLE","TN","37213"
"2607549","84646803","10- TENNESSEE TITANS","1 TITANS WAY, NASHVILLE","NR","84646803-0001","11/28/2018","$547.02","$0.00","$0.00","$547.02","Current","PD","Full Return","TENNESSEE TITANS FOOTBALL","460 GREAT CIRCLE ROAD","ATTN SHEREME SIEWNARINE","NASHVILLE","TN","37228","0126 - NASHVILLE PC126","TENNESSEE TITANS FOOTBALL","1 TITANS WAY","LOT M","NASHVILLE","TN","37213"
"2607549","84904867","1 - TICKET OFFICE","1 TITANS WAY, NASHVILLE","JETS","84904867-0001","12/10/2018","$750.09","$0.00","$0.00","$750.09","Current","PD","Full Return","TENNESSEE TITANS FOOTBALL","460 GREAT CIRCLE ROAD","ATTN SHEREME SIEWNARINE","NASHVILLE","TN","37228","0126 - NASHVILLE PC126","TICKET OFFICE","1 TITANS WAY","","NASHVILLE","TN","37213"
"2607549","84928139","15- TENNESSEE TITANS","1 TITANS WAY - TRIANGLE BY, NASHVILLE","BUD LIGHT TRIANGLE","84928139-0001","12/7/2018","$1,281.64","$0.00","$0.00","$1,281.64","Current","PD","Full Return","TENNESSEE TITANS FOOTBALL","460 GREAT CIRCLE ROAD","ATTN SHEREME SIEWNARINE","NASHVILLE","TN","37228","0127 - NASHVILLE POWER & HVAC PC0127","TENNESSEE TITANS FOOTBALL","1 TITANS WAY","TRIANGLE BY LOT J GATE 10","NASHVILLE","TN","37211"
"2607549","84928260","1 - MILLER LITE RIDE","1 TITANS WAY - LOT T, NASHVILLE","REMAING 4 HOME GAMES","84928260-0001","12/7/2018","$1,708.27","$0.00","$0.00","$1,708.27","Current","PD","Full Return","TENNESSEE TITANS FOOTBALL","460 GREAT CIRCLE ROAD","ATTN SHEREME SIEWNARINE","NASHVILLE","TN","37228","0127 - NASHVILLE POWER & HVAC PC0127","MILLER LITE RIDE SHARE","1 TITANS WAY - LOT T","","NASHVILLE","TN","37211"
"2607549","85020276","10- TENNESSEE TITANS","1 TITANS WAY, NASHVILLE","N/R","85020276-0001","12/5/2018","$1,095.76","$0.00","$0.00","$1,095.76","Current","PD","Full Return","TENNESSEE TITANS FOOTBALL","460 GREAT CIRCLE ROAD","ATTN SHEREME SIEWNARINE","NASHVILLE","TN","37228","0126 - NASHVILLE PC126","TENNESSEE TITANS FOOTBALL","1 TITANS WAY","LOT M","NASHVILLE","TN","37213"
"2607549","85083162","10- TENNESSEE TITANS","1 TITANS WAY, NASHVILLE","THURSDAY NIGHT","85083162-0001","12/11/2018","$748.27","$0.00","$0.00","$748.27","Current","PD","Full Return","TENNESSEE TITANS FOOTBALL","460 GREAT CIRCLE ROAD","ATTN SHEREME SIEWNARINE","NASHVILLE","TN","37228","0126 - NASHVILLE PC126","TENNESSEE TITANS FOOTBALL","1 TITANS WAY","LOT M","NASHVILLE","TN","37213"
"2607549","85088623","11- NISSAN STADIUM -","1 TITANS WAY, NASHVILLE","ZIP LINE","85088623-0001","12/10/2018","$487.09","$0.00","$0.00","$487.09","Current","PD","Full Return","TENNESSEE TITANS FOOTBALL","460 GREAT CIRCLE ROAD","ATTN SHEREME SIEWNARINE","NASHVILLE","TN","37228","0126 - NASHVILLE PC126","NISSAN STADIUM","1 TITANS WAY","","NASHVILLE","TN","37213 1234"
"2607549","85088905","11- NISSAN STADIUM -","1 TITANS WAY, NASHVILLE","YEW HAW, 40YD DASH, EXPER","85088905-0001","12/10/2018","$787.59","$0.00","$0.00","$787.59","Current","PD","Full Return","TENNESSEE TITANS FOOTBALL","460 GREAT CIRCLE ROAD","ATTN SHEREME SIEWNARINE","NASHVILLE","TN","37228","0126 - NASHVILLE PC126","NISSAN STADIUM","1 TITANS WAY","","NASHVILLE","TN","37213 1234"
"2607549","85465484","180128RC1223","1 TITANS WAY, NASHVILLE","8024","85465484-0001","12/24/2018","$2,338.73","$0.00","$0.00","$2,338.73","Current","PD","Full Return","TENNESSEE TITANS FOOTBALL","460 GREAT CIRCLE ROAD","ATTN SHEREME SIEWNARINE","NASHVILLE","TN","37228","0128 - NASHVILLE SCAFFOLDING PC128","NISSAN STADIUM","1 TITANS WAY","","NASHVILLE","TN","37213"
"2607549","85518795","1 - TICKET OFFICE","1 TITANS WAY, NASHVILLE","REDSKINS","85518795-0001","12/31/2018","$725.66","$0.00","$0.00","$725.66","Current","PD","Full Return","TENNESSEE TITANS FOOTBALL","460 GREAT CIRCLE ROAD","ATTN SHEREME SIEWNARINE","NASHVILLE","TN","37228","0126 - NASHVILLE PC126","TICKET OFFICE","1 TITANS WAY","","NASHVILLE","TN","37213"
"2607549","85542342","15- TENNESSEE TITANS","1 TITANS WAY - TRIANGLE BY, NASHVILLE","REDSKINS & COLTS","85542342-0001","1/2/2019","$986.11","$0.00","$0.00","$986.11","Current","PD","Partial Return","TENNESSEE TITANS FOOTBALL","460 GREAT CIRCLE ROAD","ATTN SHEREME SIEWNARINE","NASHVILLE","TN","37228","0127 - NASHVILLE POWER & HVAC PC0127","TENNESSEE TITANS FOOTBALL","1 TITANS WAY","TRIANGLE BY LOT J GATE 10","NASHVILLE","TN","37211"
"2607549","85542342","15- TENNESSEE TITANS","1 TITANS WAY - TRIANGLE BY, NASHVILLE","REDSKINS & COLTS","85542342-0002","1/4/2019","$350.70","$0.00","$0.00","$350.70","Current","PD","Full Return","TENNESSEE TITANS FOOTBALL","460 GREAT CIRCLE ROAD","ATTN SHEREME SIEWNARINE","NASHVILLE","TN","37228","0127 - NASHVILLE POWER & HVAC PC0127","TENNESSEE TITANS FOOTBALL","1 TITANS WAY","TRIANGLE BY LOT J GATE 10","NASHVILLE","TN","37211"
"2607549","85542798","1 - MILLER LITE RIDE","1 TITANS WAY - LOT T, NASHVILLE","REDSKINS & COLTS","85542798-0001","1/2/2019","$992.12","$0.00","$0.00","$992.12","Current","PD","Partial Return","TENNESSEE TITANS FOOTBALL","460 GREAT CIRCLE ROAD","ATTN SHEREME SIEWNARINE","NASHVILLE","TN","37228","0127 - NASHVILLE POWER & HVAC PC0127","MILLER LITE RIDE SHARE","1 TITANS WAY - LOT T","","NASHVILLE","TN","37211"
"2607549","85542798","1 - MILLER LITE RIDE","1 TITANS WAY - LOT T, NASHVILLE","REDSKINS & COLTS","85542798-0002","1/4/2019","$747.28","$0.00","$0.00","$747.28","Current","PD","Full Return","TENNESSEE TITANS FOOTBALL","460 GREAT CIRCLE ROAD","ATTN SHEREME SIEWNARINE","NASHVILLE","TN","37228","0127 - NASHVILLE POWER & HVAC PC0127","MILLER LITE RIDE SHARE","1 TITANS WAY - LOT T","","NASHVILLE","TN","37211"
"2607549","85573152","10- TENNESSEE TITANS","1 TITANS WAY, NASHVILLE","PENDING","85573152-0001","1/3/2019","$1,134.18","$0.00","$0.00","$1,134.18","Current","PD","Full Return","TENNESSEE TITANS FOOTBALL","460 GREAT CIRCLE ROAD","ATTN SHEREME SIEWNARINE","NASHVILLE","TN","37228","0126 - NASHVILLE PC126","TENNESSEE TITANS FOOTBALL","1 TITANS WAY","LOT M","NASHVILLE","TN","37213"
"2607549","85621213","10- TENNESSEE TITANS","1 TITANS WAY, NASHVILLE","COLTS","85621213-0001","12/31/2018","$2,317.34","$0.00","$0.00","$2,317.34","Current","PD","Full Return","TENNESSEE TITANS FOOTBALL","460 GREAT CIRCLE ROAD","ATTN SHEREME SIEWNARINE","NASHVILLE","TN","37228","0126 - NASHVILLE PC126","TENNESSEE TITANS FOOTBALL","1 TITANS WAY","LOT M","NASHVILLE","TN","37213"
"2607549","86183162","1 - ST. THOMAS PRACT","460 GREAT CIRCLE DR, NASHVILLE","N/A","86183162-0001","1/25/2019","$1,139.74","$0.00","$0.00","$1,139.74","Current","PD","Full Return","TENNESSEE TITANS FOOTBALL","460 GREAT CIRCLE ROAD","ATTN SHEREME SIEWNARINE","NASHVILLE","TN","37228","0135 - MURFREESBORO PC135","ST. THOMAS PRACTICE COMPLEX","460 GREAT CIRCLE DR","PRACTICE BUBBLE","NASHVILLE","TN","37228 1404"
"2607549","86234018","1 - ST. THOMAS PRACT","460 GREAT CIRCLE DR, NASHVILLE","N/R","86234018-0001","1/22/2019","$711.23","$0.00","$0.00","$711.23","Current","PD","Full Return","TENNESSEE TITANS FOOTBALL","460 GREAT CIRCLE ROAD","ATTN SHEREME SIEWNARINE","NASHVILLE","TN","37228","0127 - NASHVILLE POWER & HVAC PC0127","ST. THOMAS PRACTICE COMPLEX","460 GREAT CIRCLE DR","PRACTICE BUBBLE","NASHVILLE","TN","37228 1404"
"2607549","87672855","11- NISSAN STADIUM -","1 TITANS WAY, NASHVILLE","JEFF RHINEHART","87672855-0001","3/26/2019","$421.32","$0.00","$0.00","$421.32","Current","PD","Full Return","TENNESSEE TITANS FOOTBALL","460 GREAT CIRCLE ROAD","ATTN SHEREME SIEWNARINE","NASHVILLE","TN","37228","0126 - NASHVILLE PC126","NISSAN STADIUM","1 TITANS WAY","","NASHVILLE","TN","37213 1234"
"2607549","87672855","11- NISSAN STADIUM -","1 TITANS WAY, NASHVILLE","JEFF RHINEHART","87672855-0002","8/6/2019","-$421.32","$0.00","$421.32","$0.00","Current","PD","Credit Memo","TENNESSEE TITANS FOOTBALL","460 GREAT CIRCLE ROAD","ATTN SHEREME SIEWNARINE","NASHVILLE","TN","37228","0126 - NASHVILLE PC126","NISSAN STADIUM","1 TITANS WAY","","NASHVILLE","TN","37213 1234"
"2607549","87949306","10- NISSAN STADIUM -","1 TITANS WAY, NASHVILLE","NA","87949306-0001","3/27/2019","$1,191.14","$0.00","$0.00","$1,191.14","Current","PD","Full Return","TENNESSEE TITANS FOOTBALL","460 GREAT CIRCLE ROAD","ATTN SHEREME SIEWNARINE","NASHVILLE","TN","37228","0134 - CLARKSVILLE PC134","NISSAN STADIUM","1 TITANS WAY","LOT P","NASHVILLE","TN","37213 1234"
"2607549","87949306","10- NISSAN STADIUM -","1 TITANS WAY, NASHVILLE","NA","87949306-0002","4/24/2019","-$1,191.14","$0.00","$0.00","-$1,191.14","Current","PD","Credit Memo","TENNESSEE TITANS FOOTBALL","460 GREAT CIRCLE ROAD","ATTN SHEREME SIEWNARINE","NASHVILLE","TN","37228","0134 - CLARKSVILLE PC134","NISSAN STADIUM","1 TITANS WAY","LOT P","NASHVILLE","TN","37213 1234"
"2607549","88447270","1 - NISSAN STADIUM","1 TITANS WAY, NASHVILLE","MEDICAL TRUCK","88447270-0001","4/8/2019","$340.87","$0.00","$0.00","$340.87","Current","PD","Full Return","TENNESSEE TITANS FOOTBALL","460 GREAT CIRCLE ROAD","ATTN SHEREME SIEWNARINE","NASHVILLE","TN","37228","0127 - NASHVILLE POWER & HVAC PC0127","NISSAN STADIUM","1 TITANS WAY","","NASHVILLE","TN","37213 1234"
"2607549","88492284","1 - PRACTICE FIELD","460 GREAT CIRCLE RD, NASHVILLE",".","88492284-0001","4/15/2019","$666.18","$0.00","$0.00","$666.18","Current","PD","Full Return","TENNESSEE TITANS FOOTBALL","460 GREAT CIRCLE ROAD","ATTN SHEREME SIEWNARINE","NASHVILLE","TN","37228","0175 - BOWLING GREEN KY PC175","PRACTICE FIELD","460 GREAT CIRCLE RD","","NASHVILLE","TN","37228 1404"
"2607549","88492284","1 - PRACTICE FIELD","460 GREAT CIRCLE RD, NASHVILLE",".","88492284-0002","4/24/2019","-$666.18","$0.00","$0.00","-$666.18","Current","PD","Credit Memo","TENNESSEE TITANS FOOTBALL","460 GREAT CIRCLE ROAD","ATTN SHEREME SIEWNARINE","NASHVILLE","TN","37228","0175 - BOWLING GREEN KY PC175","PRACTICE FIELD","460 GREAT CIRCLE RD","","NASHVILLE","TN","37228 1404"
"2607549","88493503","11- NISSAN STADIUM -","1 TITANS WAY, NASHVILLE","MONSTER JAM","88493503-0001","4/12/2019","$438.44","$0.00","$0.00","$438.44","Current","PD","Full Return","TENNESSEE TITANS FOOTBALL","460 GREAT CIRCLE ROAD","ATTN SHEREME SIEWNARINE","NASHVILLE","TN","37228","0136 - RIVERGATE PC136","NISSAN STADIUM","1 TITANS WAY","","NASHVILLE","TN","37213 1234"
"2607549","88493503","11- NISSAN STADIUM -","1 TITANS WAY, NASHVILLE","MONSTER JAM","88493503-0002","4/24/2019","-$438.44","$0.00","$0.00","-$438.44","Current","PD","Credit Memo","TENNESSEE TITANS FOOTBALL","460 GREAT CIRCLE ROAD","ATTN SHEREME SIEWNARINE","NASHVILLE","TN","37228","0136 - RIVERGATE PC136","NISSAN STADIUM","1 TITANS WAY","","NASHVILLE","TN","37213 1234"
"2607549","88514257","11- TENNESSEE TITANS","1 TITANS WAY, NASHVILLE",".","88514257-0002","4/17/2019","$2,201.68","$0.00","$811.04","$3,012.72","Current","PD","Full Return","TENNESSEE TITANS FOOTBALL","460 GREAT CIRCLE ROAD","ATTN SHEREME SIEWNARINE","NASHVILLE","TN","37228","0135 - MURFREESBORO PC135","TENNESSEE TITANS FOOTBALL","1 TITANS WAY","LOT M","NASHVILLE","TN","37213 1234"
"2607549","88514257","11- TENNESSEE TITANS","1 TITANS WAY, NASHVILLE",".","88514257-0003","6/18/2019","-$2,201.68","$0.00","$0.00","-$2,201.68","Current","PD","Credit Memo","TENNESSEE TITANS FOOTBALL","460 GREAT CIRCLE ROAD","ATTN SHEREME SIEWNARINE","NASHVILLE","TN","37228","0135 - MURFREESBORO PC135","TENNESSEE TITANS FOOTBALL","1 TITANS WAY","LOT M","NASHVILLE","TN","37213 1234"
"2607549","88785482","11- TENNESSEE TITANS","1 TITANS WAY, NASHVILLE","PENDING","88785482-0001","4/18/2019","$657.88","$0.00","$657.88","$1,315.76","Current","PD","Full Return","TENNESSEE TITANS FOOTBALL","460 GREAT CIRCLE ROAD","ATTN SHEREME SIEWNARINE","NASHVILLE","TN","37228","0136 - RIVERGATE PC136","TENNESSEE TITANS FOOTBALL","1 TITANS WAY","LOT M","NASHVILLE","TN","37213 1234"
"2607549","88785482","11- TENNESSEE TITANS","1 TITANS WAY, NASHVILLE","PENDING","88785482-0002","6/18/2019","-$657.88","$0.00","$0.00","-$657.88","Current","PD","Credit Memo","TENNESSEE TITANS FOOTBALL","460 GREAT CIRCLE ROAD","ATTN SHEREME SIEWNARINE","NASHVILLE","TN","37228","0136 - RIVERGATE PC136","TENNESSEE TITANS FOOTBALL","1 TITANS WAY","LOT M","NASHVILLE","TN","37213 1234"
"2607549","88801574","9 - TENNESSEE TITANS","1 TITANS WAY, NASHVILLE","NR","88801574-0001","5/3/2019","$2,530.39","$0.00","$2,530.39","$5,060.78","Current","PD","4 Week Bill","TENNESSEE TITANS FOOTBALL","460 GREAT CIRCLE ROAD","ATTN SHEREME SIEWNARINE","NASHVILLE","TN","37228","0126 - NASHVILLE PC126","NISSAN STADIUM","1 TITANS WAY","LOT G","NASHVILLE","TN","37213"
"2607549","88801574","9 - TENNESSEE TITANS","1 TITANS WAY, NASHVILLE","NR","88801574-0003","6/18/2019","-$2,530.39","$0.00","$0.00","-$2,530.39","Current","PD","Credit Memo","TENNESSEE TITANS FOOTBALL","460 GREAT CIRCLE ROAD","ATTN SHEREME SIEWNARINE","NASHVILLE","TN","37228","0126 - NASHVILLE PC126","NISSAN STADIUM","1 TITANS WAY","LOT G","NASHVILLE","TN","37213"
"2607549","88949967","10- TENNESSEE TITANS","1 TITANS WAY, NASHVILLE","NR","88949967-0001","4/25/2019","$924.23","$0.00","$924.23","$1,848.46","Current","PD","Full Return","TENNESSEE TITANS FOOTBALL","460 GREAT CIRCLE ROAD","ATTN SHEREME SIEWNARINE","NASHVILLE","TN","37228","0126 - NASHVILLE PC126","TENNESSEE TITANS FOOTBALL","1 TITANS WAY","LOT M","NASHVILLE","TN","37213"
"2607549","88949967","10- TENNESSEE TITANS","1 TITANS WAY, NASHVILLE","NR","88949967-0002","6/18/2019","-$924.23","$0.00","$0.00","-$924.23","Current","PD","Credit Memo","TENNESSEE TITANS FOOTBALL","460 GREAT CIRCLE ROAD","ATTN SHEREME SIEWNARINE","NASHVILLE","TN","37228","0126 - NASHVILLE PC126","TENNESSEE TITANS FOOTBALL","1 TITANS WAY","LOT M","NASHVILLE","TN","37213"
"2607549","89241139","1 - ST. THOMAS PRACT","460 GREAT CIRCLE DR, NASHVILLE","N/R","89241139-0001","5/8/2019","$707.95","$0.00","$0.00","$707.95","Current","PD","Full Return","TENNESSEE TITANS FOOTBALL","460 GREAT CIRCLE ROAD","ATTN SHEREME SIEWNARINE","NASHVILLE","TN","37228","0127 - NASHVILLE POWER & HVAC PC0127","ST. THOMAS PRACTICE COMPLEX","460 GREAT CIRCLE DR","PRACTICE BUBBLE","NASHVILLE","TN","37228 1404"
"2607549","89241496","1 - ST. THOMAS PRACT","460 GREAT CIRCLE DR, NASHVILLE",".","89241496-0001","5/3/2019","$1,595.81","$0.00","$1,595.81","$3,191.62","Current","PD","Full Return","TENNESSEE TITANS FOOTBALL","460 GREAT CIRCLE ROAD","ATTN SHEREME SIEWNARINE","NASHVILLE","TN","37228","0126 - NASHVILLE PC126","ST. THOMAS PRACTICE COMPLEX","460 GREAT CIRCLE DR","PRACTICE BUBBLE","NASHVILLE","TN","37228 1404"
"2607549","89241496","1 - ST. THOMAS PRACT","460 GREAT CIRCLE DR, NASHVILLE",".","89241496-0002","6/18/2019","-$1,595.81","$0.00","$0.00","-$1,595.81","Current","PD","Credit Memo","TENNESSEE TITANS FOOTBALL","460 GREAT CIRCLE ROAD","ATTN SHEREME SIEWNARINE","NASHVILLE","TN","37228","0126 - NASHVILLE PC126","ST. THOMAS PRACTICE COMPLEX","460 GREAT CIRCLE DR","PRACTICE BUBBLE","NASHVILLE","TN","37228 1404"
"2607549","89247220","1 - ST. THOMAS PRACT","460 GREAT CIRCLE DR, NASHVILLE",".","89247220-0002","5/3/2019","$929.82","$0.00","$929.82","$1,859.64","Current","PD","Full Return","TENNESSEE TITANS FOOTBALL","460 GREAT CIRCLE ROAD","ATTN SHEREME SIEWNARINE","NASHVILLE","TN","37228","0126 - NASHVILLE PC126","ST. THOMAS PRACTICE COMPLEX","460 GREAT CIRCLE DR","PRACTICE BUBBLE","NASHVILLE","TN","37228 1404"
"2607549","89247220","1 - ST. THOMAS PRACT","460 GREAT CIRCLE DR, NASHVILLE",".","89247220-0003","6/18/2019","-$929.82","$0.00","$0.00","-$929.82","Current","PD","Credit Memo","TENNESSEE TITANS FOOTBALL","460 GREAT CIRCLE ROAD","ATTN SHEREME SIEWNARINE","NASHVILLE","TN","37228","0126 - NASHVILLE PC126","ST. THOMAS PRACTICE COMPLEX","460 GREAT CIRCLE DR","PRACTICE BUBBLE","NASHVILLE","TN","37228 1404"
"2607549","89587257","22- TENNESSEE TITANS","TITANS 5K, NASHVILLE","TITANS 5K","89587257-0001","5/13/2019","$371.28","$0.00","$0.00","$371.28","Current","PD","Full Return","TENNESSEE TITANS FOOTBALL","460 GREAT CIRCLE ROAD","ATTN SHEREME SIEWNARINE","NASHVILLE","TN","37228","0127 - NASHVILLE POWER & HVAC PC0127","TENNESSEE TITANS FOOTBALL","TITANS 5K","1 TITANS WAY","NASHVILLE","TN","37203"
"2607549","89615213","1 - PRACTICE FIELD","460 GREAT CIRCLE RD, NASHVILLE",".","89615213-0001","5/28/2019","$2,251.65","$0.00","$2,251.65","$4,503.30","Current","PD","4 Week Bill","TENNESSEE TITANS FOOTBALL","460 GREAT CIRCLE ROAD","ATTN SHEREME SIEWNARINE","NASHVILLE","TN","37228","0126 - NASHVILLE PC126","PRACTICE FIELD","460 GREAT CIRCLE RD","","NASHVILLE","TN","37228 1404"
"2607549","89615213","1 - PRACTICE FIELD","460 GREAT CIRCLE RD, NASHVILLE",".","89615213-0002","6/25/2019","$1,987.82","$0.00","$1,987.82","$3,975.64","Current","PD","4 Week Bill","TENNESSEE TITANS FOOTBALL","460 GREAT CIRCLE ROAD","ATTN SHEREME SIEWNARINE","NASHVILLE","TN","37228","0126 - NASHVILLE PC126","PRACTICE FIELD","460 GREAT CIRCLE RD","","NASHVILLE","TN","37228 1404"
"2607549","89615213","1 - PRACTICE FIELD","460 GREAT CIRCLE RD, NASHVILLE",".","89615213-0003","7/24/2019","$1,676.07","$0.00","$0.00","$1,676.07","Current","PD","Full Return","TENNESSEE TITANS FOOTBALL","460 GREAT CIRCLE ROAD","ATTN SHEREME SIEWNARINE","NASHVILLE","TN","37228","0126 - NASHVILLE PC126","PRACTICE FIELD","460 GREAT CIRCLE RD","","NASHVILLE","TN","37228 1404"
"2607549","89615213","1 - PRACTICE FIELD","460 GREAT CIRCLE RD, NASHVILLE",".","89615213-0004","7/31/2019","-$1,676.07","$0.00","$0.00","-$1,676.07","Current","PD","Credit Memo","TENNESSEE TITANS FOOTBALL","460 GREAT CIRCLE ROAD","ATTN SHEREME SIEWNARINE","NASHVILLE","TN","37228","0126 - NASHVILLE PC126","PRACTICE FIELD","460 GREAT CIRCLE RD","","NASHVILLE","TN","37228 1404"
"2607549","89615213","1 - PRACTICE FIELD","460 GREAT CIRCLE RD, NASHVILLE",".","89615213-0005","8/1/2019","$732.20","$0.00","$0.00","$732.20","Current","PD","Damage Invoice","TENNESSEE TITANS FOOTBALL","460 GREAT CIRCLE ROAD","ATTN SHEREME SIEWNARINE","NASHVILLE","TN","37228","0126 - NASHVILLE PC126","PRACTICE FIELD","460 GREAT CIRCLE RD","","NASHVILLE","TN","37228 1404"
"2607549","89615213","1 - PRACTICE FIELD","460 GREAT CIRCLE RD, NASHVILLE",".","89615213-0006","8/6/2019","-$2,251.65","$0.00","$0.00","-$2,251.65","Current","PD","Credit Memo","TENNESSEE TITANS FOOTBALL","460 GREAT CIRCLE ROAD","ATTN SHEREME SIEWNARINE","NASHVILLE","TN","37228","0126 - NASHVILLE PC126","PRACTICE FIELD","460 GREAT CIRCLE RD","","NASHVILLE","TN","37228 1404"
"2607549","89615213","1 - PRACTICE FIELD","460 GREAT CIRCLE RD, NASHVILLE",".","89615213-0007","8/6/2019","-$1,987.82","$0.00","$0.00","-$1,987.82","Current","PD","Credit Memo","TENNESSEE TITANS FOOTBALL","460 GREAT CIRCLE ROAD","ATTN SHEREME SIEWNARINE","NASHVILLE","TN","37228","0126 - NASHVILLE PC126","PRACTICE FIELD","460 GREAT CIRCLE RD","","NASHVILLE","TN","37228 1404"
"2607549","89632170","1 - ST. THOMAS PRACT","460 GREAT CIRCLE DR, NASHVILLE","PENDING","89632170-0001","5/20/2019","$924.58","$0.00","$924.58","$1,849.16","Current","PD","Full Return","TENNESSEE TITANS FOOTBALL","460 GREAT CIRCLE ROAD","ATTN SHEREME SIEWNARINE","NASHVILLE","TN","37228","0136 - RIVERGATE PC136","ST. THOMAS PRACTICE COMPLEX","460 GREAT CIRCLE DR","PRACTICE BUBBLE","NASHVILLE","TN","37228 1404"
"2607549","89632170","1 - ST. THOMAS PRACT","460 GREAT CIRCLE DR, NASHVILLE","PENDING","89632170-0002","8/6/2019","-$924.58","$0.00","$0.00","-$924.58","Current","PD","Credit Memo","TENNESSEE TITANS FOOTBALL","460 GREAT CIRCLE ROAD","ATTN SHEREME SIEWNARINE","NASHVILLE","TN","37228","0136 - RIVERGATE PC136","ST. THOMAS PRACTICE COMPLEX","460 GREAT CIRCLE DR","PRACTICE BUBBLE","NASHVILLE","TN","37228 1404"
"2607549","89652567","17- TENNESSEE TITANS","460 GREAT CIRCLE ROAD, NASHVILLE",".","89652567-0001","5/22/2019","$229.65","$0.00","$229.65","$459.30","Current","PD","Full Return","TENNESSEE TITANS FOOTBALL","460 GREAT CIRCLE ROAD","ATTN SHEREME SIEWNARINE","NASHVILLE","TN","37228","0126 - NASHVILLE PC126","TENNESSEE TITANS FOOTBALL","460 GREAT CIRCLE ROAD","","NASHVILLE","TN","37228 1404"
"2607549","89652567","17- TENNESSEE TITANS","460 GREAT CIRCLE ROAD, NASHVILLE",".","89652567-0002","8/6/2019","-$229.65","$0.00","$0.00","-$229.65","Current","PD","Credit Memo","TENNESSEE TITANS FOOTBALL","460 GREAT CIRCLE ROAD","ATTN SHEREME SIEWNARINE","NASHVILLE","TN","37228","0126 - NASHVILLE PC126","TENNESSEE TITANS FOOTBALL","460 GREAT CIRCLE ROAD","","NASHVILLE","TN","37228 1404"
"2607549","89883972","10- TENNESSEE TITANS","1 TITANS WAY, NASHVILLE",".","89883972-0001","5/28/2019","$2,027.90","$0.00","$2,027.90","$4,055.80","Current","PD","Full Return","TENNESSEE TITANS FOOTBALL","460 GREAT CIRCLE ROAD","ATTN SHEREME SIEWNARINE","NASHVILLE","TN","37228","0126 - NASHVILLE PC126","TENNESSEE TITANS FOOTBALL","1 TITANS WAY","LOT M","NASHVILLE","TN","37213"
"2607549","89883972","10- TENNESSEE TITANS","1 TITANS WAY, NASHVILLE",".","89883972-0002","8/6/2019","-$2,027.90","$0.00","$0.00","-$2,027.90","Current","PD","Credit Memo","TENNESSEE TITANS FOOTBALL","460 GREAT CIRCLE ROAD","ATTN SHEREME SIEWNARINE","NASHVILLE","TN","37228","0126 - NASHVILLE PC126","TENNESSEE TITANS FOOTBALL","1 TITANS WAY","LOT M","NASHVILLE","TN","37213"
"2607549","90016557","052519CONCERT","1 TITANS WAY, NASHVILLE","ERIC CHURCH","90016557-0001","5/29/2019","$2,561.95","$0.00","$0.00","$2,561.95","Current","PD","Full Return","TENNESSEE TITANS FOOTBALL","460 GREAT CIRCLE ROAD","ATTN SHEREME SIEWNARINE","NASHVILLE","TN","37228","0484 - NASHVILLE CC PC484","ERIC CHURCH CONCERT","1 TITANS WAY","","NASHVILLE","TN","37213 1234"
"2607549","90079148","10- TENNESSEE TITANS","1 TITANS WAY, NASHVILLE","JEFF","90079148-0001","5/28/2019","$784.42","$0.00","$0.00","$784.42","Current","PD","Full Return","TENNESSEE TITANS FOOTBALL","460 GREAT CIRCLE ROAD","ATTN SHEREME SIEWNARINE","NASHVILLE","TN","37228","0127 - NASHVILLE POWER & HVAC PC0127","TENNESSEE TITANS FOOTBALL","1 TITANS WAY","LOT M","NASHVILLE","TN","37213"
"2607549","90080128","10- TENNESSEE TITANS","1 TITANS WAY, NASHVILLE","ERIC CHURCH","90080128-0001","5/28/2019","$1,092.50","$0.00","$0.00","$1,092.50","Current","PD","Full Return","TENNESSEE TITANS FOOTBALL","460 GREAT CIRCLE ROAD","ATTN SHEREME SIEWNARINE","NASHVILLE","TN","37228","0127 - NASHVILLE POWER & HVAC PC0127","TENNESSEE TITANS FOOTBALL","1 TITANS WAY","LOT M","NASHVILLE","TN","37213"
"2607549","90764448","1 - PRACTICE FIELD","460 GREAT CIRCLE RD, NASHVILLE","1","90764448-0001","6/25/2019","$1,084.85","$0.00","$1,084.85","$2,169.70","Current","PD","Full Return","TENNESSEE TITANS FOOTBALL","460 GREAT CIRCLE ROAD","ATTN SHEREME SIEWNARINE","NASHVILLE","TN","37228","1287 - WEST NASHVILLE TN PC1287","PRACTICE FIELD","460 GREAT CIRCLE RD","","NASHVILLE","TN","37228 1404"
"2607549","90764448","1 - PRACTICE FIELD","460 GREAT CIRCLE RD, NASHVILLE","1","90764448-0002","8/6/2019","-$1,084.85","$0.00","$0.00","-$1,084.85","Current","PD","Credit Memo","TENNESSEE TITANS FOOTBALL","460 GREAT CIRCLE ROAD","ATTN SHEREME SIEWNARINE","NASHVILLE","TN","37228","1287 - WEST NASHVILLE TN PC1287","PRACTICE FIELD","460 GREAT CIRCLE RD","","NASHVILLE","TN","37228 1404"
"2607549","90850109","10- TENNESSEE TITANS","1 TITANS WAY, NASHVILLE","NR","90850109-0001","6/20/2019","$355.19","$0.00","$355.19","$710.38","Current","PD","Full Return","TENNESSEE TITANS FOOTBALL","460 GREAT CIRCLE ROAD","ATTN SHEREME SIEWNARINE","NASHVILLE","TN","37228","0126 - NASHVILLE PC126","TENNESSEE TITANS FOOTBALL","1 TITANS WAY","LOT M","NASHVILLE","TN","37213"
"2607549","90850109","10- TENNESSEE TITANS","1 TITANS WAY, NASHVILLE","NR","90850109-0002","8/6/2019","-$355.19","$0.00","$0.00","-$355.19","Current","PD","Credit Memo","TENNESSEE TITANS FOOTBALL","460 GREAT CIRCLE ROAD","ATTN SHEREME SIEWNARINE","NASHVILLE","TN","37228","0126 - NASHVILLE PC126","TENNESSEE TITANS FOOTBALL","1 TITANS WAY","LOT M","NASHVILLE","TN","37213"
"2607549","91177428","10- TENNESSEE TITANS","1 TITANS WAY, NASHVILLE",".","91177428-0001","7/8/2019","$4,794.53","$0.00","$0.00","$4,794.53","Current","PD","4 Week Bill","TENNESSEE TITANS FOOTBALL","460 GREAT CIRCLE ROAD","ATTN SHEREME SIEWNARINE","NASHVILLE","TN","37228","0126 - NASHVILLE PC126","TENNESSEE TITANS FOOTBALL","1 TITANS WAY","LOT M","NASHVILLE","TN","37213"
"2607549","91177428","10- TENNESSEE TITANS","1 TITANS WAY, NASHVILLE",".","91177428-0002","7/10/2019","$54.08","$0.00","$0.00","$54.08","Current","PD","Full Return","TENNESSEE TITANS FOOTBALL","460 GREAT CIRCLE ROAD","ATTN SHEREME SIEWNARINE","NASHVILLE","TN","37228","0126 - NASHVILLE PC126","TENNESSEE TITANS FOOTBALL","1 TITANS WAY","LOT M","NASHVILLE","TN","37213"
"2607549","91177428","10- TENNESSEE TITANS","1 TITANS WAY, NASHVILLE",".","91177428-0003","7/31/2019","-$4,794.53","$0.00","$0.00","-$4,794.53","Current","PD","Credit Memo","TENNESSEE TITANS FOOTBALL","460 GREAT CIRCLE ROAD","ATTN SHEREME SIEWNARINE","NASHVILLE","TN","37228","0126 - NASHVILLE PC126","TENNESSEE TITANS FOOTBALL","1 TITANS WAY","LOT M","NASHVILLE","TN","37213"
"2607549","91177428","10- TENNESSEE TITANS","1 TITANS WAY, NASHVILLE",".","91177428-0004","7/31/2019","-$54.08","$0.00","$0.00","-$54.08","Current","PD","Credit Memo","TENNESSEE TITANS FOOTBALL","460 GREAT CIRCLE ROAD","ATTN SHEREME SIEWNARINE","NASHVILLE","TN","37228","0126 - NASHVILLE PC126","TENNESSEE TITANS FOOTBALL","1 TITANS WAY","LOT M","NASHVILLE","TN","37213"
"2607549","91201114","10- NISSAN STADIUM -","1 TITANS WAY, NASHVILLE",".","91201114-0001","7/10/2019","$1,942.59","$0.00","$0.00","$1,942.59","Current","PD","Full Return","TENNESSEE TITANS FOOTBALL","460 GREAT CIRCLE ROAD","ATTN SHEREME SIEWNARINE","NASHVILLE","TN","37228","0126 - NASHVILLE PC126","NISSAN STADIUM","1 TITANS WAY","LOT P","NASHVILLE","TN","37213 1234"
"2607549","91201114","10- NISSAN STADIUM -","1 TITANS WAY, NASHVILLE",".","91201114-0002","7/31/2019","-$1,942.59","$0.00","$0.00","-$1,942.59","Current","PD","Credit Memo","TENNESSEE TITANS FOOTBALL","460 GREAT CIRCLE ROAD","ATTN SHEREME SIEWNARINE","NASHVILLE","TN","37228","0126 - NASHVILLE PC126","NISSAN STADIUM","1 TITANS WAY","LOT P","NASHVILLE","TN","37213 1234"
"2607549","91308661","1 - ST. THOMAS PRACT","460 GREAT CIRCLE DR, NASHVILLE","NEED PO","91308661-0001","7/9/2019","$1,084.86","$0.00","$0.00","$1,084.86","Current","PD","Full Return","TENNESSEE TITANS FOOTBALL","460 GREAT CIRCLE ROAD","ATTN SHEREME SIEWNARINE","NASHVILLE","TN","37228","0126 - NASHVILLE PC126","ST. THOMAS PRACTICE COMPLEX","460 GREAT CIRCLE DR","PRACTICE BUBBLE","NASHVILLE","TN","37228 1404"
"2607549","91308661","1 - ST. THOMAS PRACT","460 GREAT CIRCLE DR, NASHVILLE","NEED PO","91308661-0002","7/31/2019","-$1,084.86","$0.00","$0.00","-$1,084.86","Current","PD","Credit Memo","TENNESSEE TITANS FOOTBALL","460 GREAT CIRCLE ROAD","ATTN SHEREME SIEWNARINE","NASHVILLE","TN","37228","0126 - NASHVILLE PC126","ST. THOMAS PRACTICE COMPLEX","460 GREAT CIRCLE DR","PRACTICE BUBBLE","NASHVILLE","TN","37228 1404"
"2607549","91396312","12- NISSAN STADIUM -","1 TITANS WAY, NASHVILLE","SOCCER GAME","91396312-0001","7/5/2019","$177.60","$0.00","$0.00","$177.60","Current","PD","Full Return","TENNESSEE TITANS FOOTBALL","460 GREAT CIRCLE ROAD","ATTN SHEREME SIEWNARINE","NASHVILLE","TN","37228","0126 - NASHVILLE PC126","NISSAN STADIUM","1 TITANS WAY","","NASHVILLE","TN","37213 1234"
"2607549","91396312","12- NISSAN STADIUM -","1 TITANS WAY, NASHVILLE","SOCCER GAME","91396312-0002","7/31/2019","-$177.60","$0.00","$0.00","-$177.60","Current","PD","Credit Memo","TENNESSEE TITANS FOOTBALL","460 GREAT CIRCLE ROAD","ATTN SHEREME SIEWNARINE","NASHVILLE","TN","37228","0126 - NASHVILLE PC126","NISSAN STADIUM","1 TITANS WAY","","NASHVILLE","TN","37213 1234"
"2607549","91396312","12- NISSAN STADIUM -","1 TITANS WAY, NASHVILLE","SOCCER GAME","91396312-0003","8/21/2019","$177.60","$0.00","$0.00","$177.60","Current","PD","Credit Memo","TENNESSEE TITANS FOOTBALL","460 GREAT CIRCLE ROAD","ATTN SHEREME SIEWNARINE","NASHVILLE","TN","37228","0126 - NASHVILLE PC126","NISSAN STADIUM","1 TITANS WAY","","NASHVILLE","TN","37213 1234"
"2607549","91606436","1 - PRACTICE FIELD","460 GREAT CIRCLE RD, NASHVILLE",".","91606436-0001","7/16/2019","$1,021.30","$0.00","$0.00","$1,021.30","Current","PD","Full Return","TENNESSEE TITANS FOOTBALL","460 GREAT CIRCLE ROAD","ATTN SHEREME SIEWNARINE","NASHVILLE","TN","37228","0126 - NASHVILLE PC126","PRACTICE FIELD","460 GREAT CIRCLE RD","","NASHVILLE","TN","37228 1404"
"2607549","91606436","1 - PRACTICE FIELD","460 GREAT CIRCLE RD, NASHVILLE",".","91606436-0002","7/16/2019","-$371.85","$0.00","$0.00","-$371.85","Current","PD","Credit Memo","TENNESSEE TITANS FOOTBALL","460 GREAT CIRCLE ROAD","ATTN SHEREME SIEWNARINE","NASHVILLE","TN","37228","0126 - NASHVILLE PC126","PRACTICE FIELD","460 GREAT CIRCLE RD","","NASHVILLE","TN","37228 1404"
"2607549","91606436","1 - PRACTICE FIELD","460 GREAT CIRCLE RD, NASHVILLE",".","91606436-0003","7/31/2019","-$612.21","$0.00","$0.00","-$612.21","Current","PD","Credit Memo","TENNESSEE TITANS FOOTBALL","460 GREAT CIRCLE ROAD","ATTN SHEREME SIEWNARINE","NASHVILLE","TN","37228","0126 - NASHVILLE PC126","PRACTICE FIELD","460 GREAT CIRCLE RD","","NASHVILLE","TN","37228 1404"
"2607549","91606436","1 - PRACTICE FIELD","460 GREAT CIRCLE RD, NASHVILLE",".","91606436-0004","7/31/2019","-$34.10","$0.00","$0.00","-$34.10","Current","PD","Credit Memo","TENNESSEE TITANS FOOTBALL","460 GREAT CIRCLE ROAD","ATTN SHEREME SIEWNARINE","NASHVILLE","TN","37228","0126 - NASHVILLE PC126","PRACTICE FIELD","460 GREAT CIRCLE RD","","NASHVILLE","TN","37228 1404"
"2607549","91606436","1 - PRACTICE FIELD","460 GREAT CIRCLE RD, NASHVILLE",".","91606436-0005","7/31/2019","-$3.14","$0.00","$0.00","-$3.14","Current","PD","Credit Memo","TENNESSEE TITANS FOOTBALL","460 GREAT CIRCLE ROAD","ATTN SHEREME SIEWNARINE","NASHVILLE","TN","37228","0126 - NASHVILLE PC126","PRACTICE FIELD","460 GREAT CIRCLE RD","","NASHVILLE","TN","37228 1404"
"2607549","91668889","1 - PRACTICE FIELD","460 GREAT CIRCLE RD, NASHVILLE","NA","91668889-0001","7/19/2019","$3,039.26","$0.00","$0.00","$3,039.26","Current","PD","Full Return","TENNESSEE TITANS FOOTBALL","460 GREAT CIRCLE ROAD","ATTN SHEREME SIEWNARINE","NASHVILLE","TN","37228","0126 - NASHVILLE PC126","PRACTICE FIELD","460 GREAT CIRCLE RD","","NASHVILLE","TN","37228 1404"
"2607549","91668889","1 - PRACTICE FIELD","460 GREAT CIRCLE RD, NASHVILLE","NA","91668889-0002","7/31/2019","-$3,039.26","$0.00","$0.00","-$3,039.26","Current","PD","Credit Memo","TENNESSEE TITANS FOOTBALL","460 GREAT CIRCLE ROAD","ATTN SHEREME SIEWNARINE","NASHVILLE","TN","37228","0126 - NASHVILLE PC126","PRACTICE FIELD","460 GREAT CIRCLE RD","","NASHVILLE","TN","37228 1404"
"2607549","91741477","1 - PRACTICE FIELD","460 GREAT CIRCLE RD, NASHVILLE","NR","91741477-0001","7/22/2019","$1,642.80","$0.00","$0.00","$1,642.80","Current","PD","Full Return","TENNESSEE TITANS FOOTBALL","460 GREAT CIRCLE ROAD","ATTN SHEREME SIEWNARINE","NASHVILLE","TN","37228","1287 - WEST NASHVILLE TN PC1287","PRACTICE FIELD","460 GREAT CIRCLE RD","","NASHVILLE","TN","37228 1404"
"2607549","91741477","1 - PRACTICE FIELD","460 GREAT CIRCLE RD, NASHVILLE","NR","91741477-0002","7/31/2019","-$1,642.80","$0.00","$0.00","-$1,642.80","Current","PD","Credit Memo","TENNESSEE TITANS FOOTBALL","460 GREAT CIRCLE ROAD","ATTN SHEREME SIEWNARINE","NASHVILLE","TN","37228","1287 - WEST NASHVILLE TN PC1287","PRACTICE FIELD","460 GREAT CIRCLE RD","","NASHVILLE","TN","37228 1404"
"2607549","91745990","1 - PRACTICE FIELD","460 GREAT CIRCLE RD, NASHVILLE","NR","91745990-0001","7/23/2019","$422.58","$0.00","$0.00","$422.58","Current","PD","Full Return","TENNESSEE TITANS FOOTBALL","460 GREAT CIRCLE ROAD","ATTN SHEREME SIEWNARINE","NASHVILLE","TN","37228","0126 - NASHVILLE PC126","PRACTICE FIELD","460 GREAT CIRCLE RD","","NASHVILLE","TN","37228 1404"
"2607549","91745990","1 - PRACTICE FIELD","460 GREAT CIRCLE RD, NASHVILLE","NR","91745990-0002","7/31/2019","-$422.58","$0.00","$0.00","-$422.58","Current","PD","Credit Memo","TENNESSEE TITANS FOOTBALL","460 GREAT CIRCLE ROAD","ATTN SHEREME SIEWNARINE","NASHVILLE","TN","37228","0126 - NASHVILLE PC126","PRACTICE FIELD","460 GREAT CIRCLE RD","","NASHVILLE","TN","37228 1404"
"2607549","91985105","1 - PRACTICE FIELD","460 GREAT CIRCLE RD, NASHVILLE","TP TRADE","91985105-0001","8/8/2019","$2,516.29","$0.00","$0.00","$2,516.29","Current","PD","4 Week Bill","TENNESSEE TITANS FOOTBALL","460 GREAT CIRCLE ROAD","ATTN SHEREME SIEWNARINE","NASHVILLE","TN","37228","1287 - WEST NASHVILLE TN PC1287","PRACTICE FIELD","460 GREAT CIRCLE RD","","NASHVILLE","TN","37228 1404"
"2607549","91985105","1 - PRACTICE FIELD","460 GREAT CIRCLE RD, NASHVILLE","TP TRADE","91985105-0003","9/30/2019","-$2,516.29","$0.00","$0.00","-$2,516.29","Current","PD","Credit Memo","TENNESSEE TITANS FOOTBALL","460 GREAT CIRCLE ROAD","ATTN SHEREME SIEWNARINE","NASHVILLE","TN","37228","1287 - WEST NASHVILLE TN PC1287","PRACTICE FIELD","460 GREAT CIRCLE RD","","NASHVILLE","TN","37228 1404"
"2607549","92079614","6 - TENNESSEE TITANS","1 TITANS WAY, NASHVILLE","JR-TRADE","92079614-0001","7/29/2019","$1,820.49","$0.00","$0.00","$1,820.49","Current","PD","Full Return","TENNESSEE TITANS FOOTBALL","460 GREAT CIRCLE ROAD","ATTN SHEREME SIEWNARINE","NASHVILLE","TN","37228","0126 - NASHVILLE PC126","TENNESSEE TITANS FOOTBALL","1 TITANS WAY","","NASHVILLE","TN","37213 1234"
"2607549","92079614","6 - TENNESSEE TITANS","1 TITANS WAY, NASHVILLE","JR-TRADE","92079614-0002","7/29/2019","-$771.44","$0.00","$0.00","-$771.44","Current","PD","Credit Memo","TENNESSEE TITANS FOOTBALL","460 GREAT CIRCLE ROAD","ATTN SHEREME SIEWNARINE","NASHVILLE","TN","37228","0126 - NASHVILLE PC126","TENNESSEE TITANS FOOTBALL","1 TITANS WAY","","NASHVILLE","TN","37213 1234"
"2607549","92079614","6 - TENNESSEE TITANS","1 TITANS WAY, NASHVILLE","JR-TRADE","92079614-0003","7/31/2019","-$1,049.05","$0.00","$0.00","-$1,049.05","Current","PD","Credit Memo","TENNESSEE TITANS FOOTBALL","460 GREAT CIRCLE ROAD","ATTN SHEREME SIEWNARINE","NASHVILLE","TN","37228","0126 - NASHVILLE PC126","TENNESSEE TITANS FOOTBALL","1 TITANS WAY","","NASHVILLE","TN","37213 1234"
"2607549","92257820","12- NISSAN STADIUM -","1 TITANS WAY, NASHVILLE","MATRAX INSTALL & STRIKE","92257820-0001","8/5/2019","$1,085.36","$0.00","$0.00","$1,085.36","Current","PD","Full Return","TENNESSEE TITANS FOOTBALL","460 GREAT CIRCLE ROAD","ATTN SHEREME SIEWNARINE","NASHVILLE","TN","37228","0126 - NASHVILLE PC126","NISSAN STADIUM","1 TITANS WAY","","NASHVILLE","TN","37213 1234"
"2607549","92266038","10- NISSAN STADIUM -","1 TITANS WAY, NASHVILLE","MILLER LITE","92266038-0001","8/1/2019","$371.28","$0.00","-$371.28","$0.00","Current","PD","Other","TENNESSEE TITANS FOOTBALL","460 GREAT CIRCLE ROAD","ATTN SHEREME SIEWNARINE","NASHVILLE","TN","37228","0127 - NASHVILLE POWER & HVAC PC0127","NISSAN STADIUM","1 TITANS WAY","LOT P","NASHVILLE","TN","37213 1234"
"2607549","92287354","10- TENNESSEE TITANS","1 TITANS WAY, NASHVILLE","TRADE-JR","92287354-0001","8/3/2019","$2,789.46","$0.00","$0.00","$2,789.46","Current","PD","Full Return","TENNESSEE TITANS FOOTBALL","460 GREAT CIRCLE ROAD","ATTN SHEREME SIEWNARINE","NASHVILLE","TN","37228","0126 - NASHVILLE PC126","TENNESSEE TITANS FOOTBALL","1 TITANS WAY","LOT M","NASHVILLE","TN","37213"
"2607549","92287354","10- TENNESSEE TITANS","1 TITANS WAY, NASHVILLE","TRADE-JR","92287354-0002","9/30/2019","-$2,789.46","$0.00","$0.00","-$2,789.46","Current","PD","Credit Memo","TENNESSEE TITANS FOOTBALL","460 GREAT CIRCLE ROAD","ATTN SHEREME SIEWNARINE","NASHVILLE","TN","37228","0126 - NASHVILLE PC126","TENNESSEE TITANS FOOTBALL","1 TITANS WAY","LOT M","NASHVILLE","TN","37213"
"2607549","92297512","10- TENNESSEE TITANS","1 TITANS WAY, NASHVILLE","MATRAX INSTALL","92297512-0001","8/5/2019","$933.95","$0.00","$0.00","$933.95","Current","PD","Full Return","TENNESSEE TITANS FOOTBALL","460 GREAT CIRCLE ROAD","ATTN SHEREME SIEWNARINE","NASHVILLE","TN","37228","0126 - NASHVILLE PC126","TENNESSEE TITANS FOOTBALL","1 TITANS WAY","LOT M","NASHVILLE","TN","37213"
"2607549","92340254","1 - NAIISAN STADIUM","1 TITANS WAY, NASHVILLE","N/R","92340254-0001","8/5/2019","$5,381.11","$0.00","$0.00","$5,381.11","Current","PD","Full Return","TENNESSEE TITANS FOOTBALL","460 GREAT CIRCLE ROAD","ATTN SHEREME SIEWNARINE","NASHVILLE","TN","37228","0127 - NASHVILLE POWER & HVAC PC0127","NISSAN STADIUM","1 TITANS WAY","LOT T","NASHVILLE","TN","37213 1234"
"2607549","92360975","24- TENNESSEE TITANS","1 TITANS WAY, NASHVILLE","FLOORING FOR EVENT","92360975-0001","8/13/2019","$19,214.53","$0.00","$0.00","$19,214.53","Current","PD","Full Return","TENNESSEE TITANS FOOTBALL","460 GREAT CIRCLE ROAD","ATTN SHEREME SIEWNARINE","NASHVILLE","TN","37228","1452 - SPARTANBURG GP EVENTS PC1452","TENNESSEE TITANS EVENT","1 TITANS WAY","","NASHVILLE","TN","37213 1234"
"2607549","92497475","6 - TENNESSEE TITANS","1 TITANS WAY, NASHVILLE","TRADE-JR","92497475-0001","8/9/2019","$1,861.01","$0.00","$0.00","$1,861.01","Current","PD","Full Return","TENNESSEE TITANS FOOTBALL","460 GREAT CIRCLE ROAD","ATTN SHEREME SIEWNARINE","NASHVILLE","TN","37228","0126 - NASHVILLE PC126","TENNESSEE TITANS FOOTBALL","1 TITANS WAY","","NASHVILLE","TN","37213 1234"
"2607549","92497475","6 - TENNESSEE TITANS","1 TITANS WAY, NASHVILLE","TRADE-JR","92497475-0002","9/30/2019","-$1,861.01","$0.00","$0.00","-$1,861.01","Current","PD","Credit Memo","TENNESSEE TITANS FOOTBALL","460 GREAT CIRCLE ROAD","ATTN SHEREME SIEWNARINE","NASHVILLE","TN","37228","0126 - NASHVILLE PC126","TENNESSEE TITANS FOOTBALL","1 TITANS WAY","","NASHVILLE","TN","37213 1234"
"2607549","92530381","1 - ST. THOMAS PRACT","460 GREAT CIRCLE DR, NASHVILLE","TP-TRADE","92530381-0002","8/21/2019","$1,146.64","$0.00","$0.00","$1,146.64","Current","PD","Full Return","TENNESSEE TITANS FOOTBALL","460 GREAT CIRCLE ROAD","ATTN SHEREME SIEWNARINE","NASHVILLE","TN","37228","1035 - FRANKLIN TN PC1035","ST. THOMAS PRACTICE COMPLEX","460 GREAT CIRCLE DR","PRACTICE BUBBLE","NASHVILLE","TN","37228 1404"
"2607549","92530381","1 - ST. THOMAS PRACT","460 GREAT CIRCLE DR, NASHVILLE","TP-TRADE","92530381-0003","9/30/2019","-$1,146.64","$0.00","$0.00","-$1,146.64","Current","PD","Credit Memo","TENNESSEE TITANS FOOTBALL","460 GREAT CIRCLE ROAD","ATTN SHEREME SIEWNARINE","NASHVILLE","TN","37228","1035 - FRANKLIN TN PC1035","ST. THOMAS PRACTICE COMPLEX","460 GREAT CIRCLE DR","PRACTICE BUBBLE","NASHVILLE","TN","37228 1404"
"2607549","92565989","1 - ST. THOMAS PRACT","460 GREAT CIRCLE DR, NASHVILLE","TRADE","92565989-0001","8/13/2019","$720.40","$0.00","$0.00","$720.40","Current","PD","Full Return","TENNESSEE TITANS FOOTBALL","460 GREAT CIRCLE ROAD","ATTN SHEREME SIEWNARINE","NASHVILLE","TN","37228","0126 - NASHVILLE PC126","ST. THOMAS PRACTICE COMPLEX","460 GREAT CIRCLE DR","PRACTICE BUBBLE","NASHVILLE","TN","37228 1404"
"2607549","92565989","1 - ST. THOMAS PRACT","460 GREAT CIRCLE DR, NASHVILLE","TRADE","92565989-0002","9/30/2019","-$720.40","$0.00","$0.00","-$720.40","Current","PD","Credit Memo","TENNESSEE TITANS FOOTBALL","460 GREAT CIRCLE ROAD","ATTN SHEREME SIEWNARINE","NASHVILLE","TN","37228","0126 - NASHVILLE PC126","ST. THOMAS PRACTICE COMPLEX","460 GREAT CIRCLE DR","PRACTICE BUBBLE","NASHVILLE","TN","37228 1404"
"2607549","92843869","7 - TENNESSEE TITANS","1 TITANS WAY, NASHVILLE","PATRIOTS TRADE-JR","92843869-0001","8/19/2019","$214.79","$0.00","$0.00","$214.79","Current","PD","Full Return","TENNESSEE TITANS FOOTBALL","460 GREAT CIRCLE ROAD","ATTN SHEREME SIEWNARINE","NASHVILLE","TN","37228","0126 - NASHVILLE PC126","TENNESSEE TITANS FOOTBALL","1 TITANS WAY","LOT M","NASHVILLE","TN","37213 1234"
"2607549","92843869","7 - TENNESSEE TITANS","1 TITANS WAY, NASHVILLE","PATRIOTS TRADE-JR","92843869-0002","9/30/2019","-$214.79","$0.00","$0.00","-$214.79","Current","PD","Credit Memo","TENNESSEE TITANS FOOTBALL","460 GREAT CIRCLE ROAD","ATTN SHEREME SIEWNARINE","NASHVILLE","TN","37228","0126 - NASHVILLE PC126","TENNESSEE TITANS FOOTBALL","1 TITANS WAY","LOT M","NASHVILLE","TN","37213 1234"
"2607549","92868612","25- TENNESSEE TITANS","1 TITANS WAY, NASHVILLE","PEND","92868612-0001","8/27/2019","$3,591.63","$0.00","$0.00","$3,591.63","Current","PD","Full Return","TENNESSEE TITANS FOOTBALL","460 GREAT CIRCLE ROAD","ATTN SHEREME SIEWNARINE","NASHVILLE","TN","37228","0484 - NASHVILLE CC PC484","TENNESSEE TITANS FOOTBALL","1 TITANS WAY","","NASHVILLE","TN","37213 1234"
"2607549","92883107","3 - NISSAN STADIUM -","NISSAN STADIUM","MILLER LITE - PATRIOTS PRE","92883107-0001","8/19/2019","$740.55","$0.00","$0.00","$740.55","Current","PD","Full Return","TENNESSEE TITANS FOOTBALL","460 GREAT CIRCLE ROAD","ATTN SHEREME SIEWNARINE","NASHVILLE","TN","37228","0127 - NASHVILLE POWER & HVAC PC0127","NISSAN STADIUM","1 TITANS WAY","","NASHVILLE","TN","37213 1234"
"2607549","93080731","7 - TENNESSEE TITANS","1 TITANS WAY, NASHVILLE","STEELERS, TRADE-JR","93080731-0001","8/26/2019","$281.39","$0.00","$0.00","$281.39","Current","PD","Full Return","TENNESSEE TITANS FOOTBALL","460 GREAT CIRCLE ROAD","ATTN SHEREME SIEWNARINE","NASHVILLE","TN","37228","0126 - NASHVILLE PC126","TENNESSEE TITANS FOOTBALL","1 TITANS WAY","LOT M","NASHVILLE","TN","37213 1234"
"2607549","93080731","7 - TENNESSEE TITANS","1 TITANS WAY, NASHVILLE","STEELERS, TRADE-JR","93080731-0002","9/30/2019","-$281.39","$0.00","$0.00","-$281.39","Current","PD","Credit Memo","TENNESSEE TITANS FOOTBALL","460 GREAT CIRCLE ROAD","ATTN SHEREME SIEWNARINE","NASHVILLE","TN","37228","0126 - NASHVILLE PC126","TENNESSEE TITANS FOOTBALL","1 TITANS WAY","LOT M","NASHVILLE","TN","37213 1234"
"2607549","93099705","3 - NISSAN STADIUM -","NISSAN STADIUM","MILLER LITE - STEELERS PRE","93099705-0001","8/26/2019","$740.55","$0.00","$0.00","$740.55","Current","PD","Full Return","TENNESSEE TITANS FOOTBALL","460 GREAT CIRCLE ROAD","ATTN SHEREME SIEWNARINE","NASHVILLE","TN","37228","0127 - NASHVILLE POWER & HVAC PC0127","NISSAN STADIUM","1 TITANS WAY","","NASHVILLE","TN","37213 1234"
"2607549","93145092","11- NISSAN STADIUM -","1 TITANS WAY, NASHVILLE","TRADE-JR","93145092-0001","8/26/2019","$123.58","$0.00","$0.00","$123.58","Current","PD","Full Return","TENNESSEE TITANS FOOTBALL","460 GREAT CIRCLE ROAD","ATTN SHEREME SIEWNARINE","NASHVILLE","TN","37228","0126 - NASHVILLE PC126","NISSAN STADIUM","1 TITANS WAY","","NASHVILLE","TN","37213 1234"
"2607549","93145092","11- NISSAN STADIUM -","1 TITANS WAY, NASHVILLE","TRADE-JR","93145092-0002","9/30/2019","-$123.58","$0.00","$0.00","-$123.58","Current","PD","Credit Memo","TENNESSEE TITANS FOOTBALL","460 GREAT CIRCLE ROAD","ATTN SHEREME SIEWNARINE","NASHVILLE","TN","37228","0126 - NASHVILLE PC126","NISSAN STADIUM","1 TITANS WAY","","NASHVILLE","TN","37213 1234"
"2607549","93280436","1 - PRACTICE FIELD","460 GREAT CIRCLE RD, NASHVILLE","TRADE TP","93280436-0001","9/9/2019","$1,386.39","$0.00","$0.00","$1,386.39","Current","PD","Full Return","TENNESSEE TITANS FOOTBALL","460 GREAT CIRCLE ROAD","ATTN SHEREME SIEWNARINE","NASHVILLE","TN","37228","1287 - WEST NASHVILLE TN PC1287","PRACTICE FIELD","460 GREAT CIRCLE RD","","NASHVILLE","TN","37228 1404"
"2607549","93280436","1 - PRACTICE FIELD","460 GREAT CIRCLE RD, NASHVILLE","TRADE TP","93280436-0002","9/30/2019","-$1,386.39","$0.00","$0.00","-$1,386.39","Current","PD","Credit Memo","TENNESSEE TITANS FOOTBALL","460 GREAT CIRCLE ROAD","ATTN SHEREME SIEWNARINE","NASHVILLE","TN","37228","1287 - WEST NASHVILLE TN PC1287","PRACTICE FIELD","460 GREAT CIRCLE RD","","NASHVILLE","TN","37228 1404"
"2607549","93823383","3 - NISSAN STADIUM -","NISSAN STADIUM","MILLER LITE - COLTS","93823383-0001","9/18/2019","$693.57","$0.00","$0.00","$693.57","Current","PD","Full Return","TENNESSEE TITANS FOOTBALL","460 GREAT CIRCLE ROAD","ATTN SHEREME SIEWNARINE","NASHVILLE","TN","37228","0127 - NASHVILLE POWER & HVAC PC0127","NISSAN STADIUM","1 TITANS WAY","","NASHVILLE","TN","37213 1234"
"2607549","93825733","1 - NISSAN STADIUM","1 TITANS WAY, NASHVILLE","TRADE","93825733-0001","9/30/2019","$2,445.36","$0.00","$0.00","$2,445.36","Current","PD","4 Week Bill","TENNESSEE TITANS FOOTBALL","460 GREAT CIRCLE ROAD","ATTN SHEREME SIEWNARINE","NASHVILLE","TN","37228","1034 - COLUMBIA TN PC1034","NISSAN STADIUM","1 TITANS WAY","","NASHVILLE","TN","37213 1234"
"2607549","93825733","1 - NISSAN STADIUM","1 TITANS WAY, NASHVILLE","TRADE","93825733-0002","9/30/2019","-$2,445.36","$0.00","$0.00","-$2,445.36","Current","PD","Credit Memo","TENNESSEE TITANS FOOTBALL","460 GREAT CIRCLE ROAD","ATTN SHEREME SIEWNARINE","NASHVILLE","TN","37228","1034 - COLUMBIA TN PC1034","NISSAN STADIUM","1 TITANS WAY","","NASHVILLE","TN","37213 1234"
"2607549","93826649","3 - NISSAN STADIUM -","NISSAN STADIUM","BUD LIGHT - COLTS","93826649-0001","9/18/2019","$487.64","$0.00","$0.00","$487.64","Current","PD","Full Return","TENNESSEE TITANS FOOTBALL","460 GREAT CIRCLE ROAD","ATTN SHEREME SIEWNARINE","NASHVILLE","TN","37228","0127 - NASHVILLE POWER & HVAC PC0127","NISSAN STADIUM","1 TITANS WAY","","NASHVILLE","TN","37213 1234"
"2607549","93836411","10- NISSAN STADIUM -","1 TITANS WAY, NASHVILLE","PEND","93836411-0001","9/17/2019","$3,591.63","$0.00","$0.00","$3,591.63","Current","PD","Full Return","TENNESSEE TITANS FOOTBALL","460 GREAT CIRCLE ROAD","ATTN SHEREME SIEWNARINE","NASHVILLE","TN","37228","0484 - NASHVILLE CC PC484","NISSAN STADIUM","1 TITANS WAY","LOT P","NASHVILLE","TN","37213 1234"
"2607549","93977596","10- TENNESSEE TITANS","1 TITANS WAY, NASHVILLE","TRADE-JR","93977596-0001","9/30/2019","$1,896.39","$0.00","$0.00","$1,896.39","Current","PD","Full Return","TENNESSEE TITANS FOOTBALL","460 GREAT CIRCLE ROAD","ATTN SHEREME SIEWNARINE","NASHVILLE","TN","37228","0126 - NASHVILLE PC126","TENNESSEE TITANS FOOTBALL","1 TITANS WAY","LOT M","NASHVILLE","TN","37213"
"2607549","93977596","10- TENNESSEE TITANS","1 TITANS WAY, NASHVILLE","TRADE-JR","93977596-0002","9/30/2019","-$1,896.39","$0.00","$0.00","-$1,896.39","Current","PD","Credit Memo","TENNESSEE TITANS FOOTBALL","460 GREAT CIRCLE ROAD","ATTN SHEREME SIEWNARINE","NASHVILLE","TN","37228","0126 - NASHVILLE PC126","TENNESSEE TITANS FOOTBALL","1 TITANS WAY","LOT M","NASHVILLE","TN","37213"
"2607549","94598135","3 - NISSAN STADIUM -","NISSAN STADIUM","BUD LITE - BILLS","94598135-0001","10/7/2019","$511.13","$0.00","$0.00","$511.13","Current","PD","Full Return","TENNESSEE TITANS FOOTBALL","460 GREAT CIRCLE ROAD","ATTN SHEREME SIEWNARINE","NASHVILLE","TN","37228","0127 - NASHVILLE POWER & HVAC PC0127","NISSAN STADIUM","1 TITANS WAY","","NASHVILLE","TN","37213 1234"
"2607549","94598164","3 - NISSAN STADIUM -","NISSAN STADIUM","MILLER LITE - BILLS","94598164-0001","10/7/2019","$574.49","$0.00","$0.00","$574.49","Current","PD","Full Return","TENNESSEE TITANS FOOTBALL","460 GREAT CIRCLE ROAD","ATTN SHEREME SIEWNARINE","NASHVILLE","TN","37228","0127 - NASHVILLE POWER & HVAC PC0127","NISSAN STADIUM","1 TITANS WAY","","NASHVILLE","TN","37213 1234"
"2607549","95086850","3 - NISSAN STADIUM -","NISSAN STADIUM","MILLER LITE - CHARGERS","95086850-0001","10/21/2019","$740.55","$0.00","$0.00","$740.55","Current","PD","Full Return","TENNESSEE TITANS FOOTBALL","460 GREAT CIRCLE ROAD","ATTN SHEREME SIEWNARINE","NASHVILLE","TN","37228","0127 - NASHVILLE POWER & HVAC PC0127","NISSAN STADIUM","1 TITANS WAY","","NASHVILLE","TN","37213 1234"
"2607549","95095050","3 - NISSAN STADIUM -","NISSAN STADIUM","BUD LIGHT - CHARGERS","95095050-0001","10/21/2019","$469.61","$0.00","$0.00","$469.61","Current","PD","Full Return","TENNESSEE TITANS FOOTBALL","460 GREAT CIRCLE ROAD","ATTN SHEREME SIEWNARINE","NASHVILLE","TN","37228","0127 - NASHVILLE POWER & HVAC PC0127","NISSAN STADIUM","1 TITANS WAY","","NASHVILLE","TN","37213 1234"
"2607549","95099000","9 - TENNESSEE TITANS","1 TITANS WAY, NASHVILLE","TRADE-BM","95099000-0001","10/22/2019","$701.49","$0.00","$0.00","$701.49","Current","PD","Full Return","TENNESSEE TITANS FOOTBALL","460 GREAT CIRCLE ROAD","ATTN SHEREME SIEWNARINE","NASHVILLE","TN","37228","0126 - NASHVILLE PC126","NISSAN STADIUM","1 TITANS WAY","LOT G","NASHVILLE","TN","37213"
